<?xml version="1.0" encoding="UTF-8" standalone="no"?>
<!-- Created with Inkscape (http://www.inkscape.org/) -->

<svg
   xmlns:dc="http://purl.org/dc/elements/1.1/"
   xmlns:cc="http://creativecommons.org/ns#"
   xmlns:rdf="http://www.w3.org/1999/02/22-rdf-syntax-ns#"
   xmlns:svg="http://www.w3.org/2000/svg"
   xmlns="http://www.w3.org/2000/svg"
   xmlns:sodipodi="http://sodipodi.sourceforge.net/DTD/sodipodi-0.dtd"
   xmlns:inkscape="http://www.inkscape.org/namespaces/inkscape"
   width="2326.8704"
   height="1731.272"
   id="svg2"
   version="1.1"
   inkscape:version="0.48.3.1 r9886"
   sodipodi:docname="estructura_general.pdf">
  <defs
     id="defs4">
    <marker
       inkscape:stockid="Arrow1Mend"
       orient="auto"
       refY="0"
       refX="0"
       id="Arrow1Mend"
       style="overflow:visible">
      <path
         id="path3909"
         d="M 0,0 5,-5 -12.5,0 5,5 0,0 z"
         style="fill-rule:evenodd;stroke:#000000;stroke-width:1pt"
         transform="matrix(-0.4,0,0,-0.4,-4,0)"
         inkscape:connector-curvature="0" />
    </marker>
    <marker
       inkscape:stockid="Arrow1Mstart"
       orient="auto"
       refY="0"
       refX="0"
       id="Arrow1Mstart"
       style="overflow:visible">
      <path
         id="path3906"
         d="M 0,0 5,-5 -12.5,0 5,5 0,0 z"
         style="fill-rule:evenodd;stroke:#000000;stroke-width:1pt"
         transform="matrix(0.4,0,0,0.4,4,0)"
         inkscape:connector-curvature="0" />
    </marker>
    <marker
       inkscape:stockid="Arrow1Mend"
       orient="auto"
       refY="0"
       refX="0"
       id="Arrow1Mend-5"
       style="overflow:visible">
      <path
         id="path3909-2"
         d="M 0,0 5,-5 -12.5,0 5,5 0,0 z"
         style="fill-rule:evenodd;stroke:#000000;stroke-width:1pt"
         transform="matrix(-0.4,0,0,-0.4,-4,0)"
         inkscape:connector-curvature="0" />
    </marker>
  </defs>
  <sodipodi:namedview
     id="base"
     pagecolor="#ffffff"
     bordercolor="#666666"
     borderopacity="1.0"
     inkscape:pageopacity="0.0"
     inkscape:pageshadow="2"
     inkscape:zoom="0.40758579"
     inkscape:cx="961.21916"
     inkscape:cy="636.19725"
     inkscape:document-units="px"
     inkscape:current-layer="g5252"
     showgrid="false"
     showguides="true"
     inkscape:guide-bbox="true"
     fit-margin-top="0"
     fit-margin-left="0"
     fit-margin-right="0"
     fit-margin-bottom="0"
     units="mm"
     inkscape:window-width="1366"
     inkscape:window-height="717"
     inkscape:window-x="0"
     inkscape:window-y="0"
     inkscape:window-maximized="1"
     width="1000mm"
     inkscape:object-paths="true"
     objecttolerance="6">
    <inkscape:grid
       type="xygrid"
       id="grid5297"
       empspacing="5"
       visible="true"
       enabled="true"
       snapvisiblegridlinesonly="true"
       originx="-1797.5865px"
       originy="-2342.235px" />
  </sodipodi:namedview>
  <metadata
     id="metadata7">
    <rdf:RDF>
      <cc:Work
         rdf:about="">
        <dc:format>image/svg+xml</dc:format>
        <dc:type
           rdf:resource="http://purl.org/dc/dcmitype/StillImage" />
        <dc:title></dc:title>
        <cc:license
           rdf:resource="http://creativecommons.org/licenses/by-sa/3.0/" />
      </cc:Work>
      <cc:License
         rdf:about="http://creativecommons.org/licenses/by-sa/3.0/">
        <cc:permits
           rdf:resource="http://creativecommons.org/ns#Reproduction" />
        <cc:permits
           rdf:resource="http://creativecommons.org/ns#Distribution" />
        <cc:requires
           rdf:resource="http://creativecommons.org/ns#Notice" />
        <cc:requires
           rdf:resource="http://creativecommons.org/ns#Attribution" />
        <cc:permits
           rdf:resource="http://creativecommons.org/ns#DerivativeWorks" />
        <cc:requires
           rdf:resource="http://creativecommons.org/ns#ShareAlike" />
      </cc:License>
    </rdf:RDF>
  </metadata>
  <g
     inkscape:label="Capa 1"
     inkscape:groupmode="layer"
     id="layer1"
     transform="translate(-1797.5865,3021.1464)">
    <g
       id="g5252"
       transform="translate(82.857146,-40)">
      <g
         style="stroke-width:3;stroke-miterlimit:4;stroke-dasharray:none"
         transform="translate(1580.9391,-1916.4313)"
         id="g3012">
        <rect
           y="-1063.2151"
           x="828.24298"
           height="556.07727"
           width="834.3811"
           id="rect5299"
           style="fill:#000000;fill-opacity:0;stroke:#000000;stroke-width:3;stroke-miterlimit:4;stroke-opacity:1;stroke-dasharray:none" />
        <flowRoot
           transform="translate(-366.74387,-2536.9324)"
           style="font-size:40px;font-style:normal;font-weight:normal;line-height:125%;letter-spacing:0px;word-spacing:0px;fill:#000000;fill-opacity:1;stroke:none;font-family:Sans"
           id="flowRoot5303"
           xml:space="preserve"><flowRegion
             id="flowRegion5305"><rect
               y="1498.3918"
               x="1233.6805"
               height="49.066833"
               width="143.69563"
               id="rect5307" /></flowRegion><flowPara
             id="flowPara5309">Radar</flowPara><flowPara
             id="flowPara5311" /></flowRoot>        <g
           style="stroke-width:3;stroke-miterlimit:4;stroke-dasharray:none"
           id="g5482"
           transform="translate(-147.20052,-70.095488)">
          <text
             sodipodi:linespacing="125%"
             id="text5341"
             y="-540.86261"
             x="1192.8807"
             style="font-size:40px;font-style:normal;font-weight:normal;line-height:125%;letter-spacing:0px;word-spacing:0px;fill:#000000;fill-opacity:1;stroke:none;font-family:Sans"
             xml:space="preserve"><tspan
               id="tspan5345"
               y="-540.86261"
               x="1192.8807"
               sodipodi:role="line">ScanningRadarServer</tspan></text>
          <rect
             y="-614.5484"
             x="1164.757"
             height="119.33346"
             width="497.84912"
             id="rect5373"
             style="fill:#000000;fill-opacity:0;stroke:#000000;stroke-width:3;stroke-miterlimit:4;stroke-opacity:1;stroke-dasharray:none" />
        </g>
        <g
           style="stroke-width:3;stroke-miterlimit:4;stroke-dasharray:none"
           id="g5398"
           transform="translate(-823.62198,318.93447)">
          <flowRoot
             transform="translate(1133.2996,-2890.9147)"
             style="font-size:40px;font-style:normal;font-weight:normal;line-height:125%;letter-spacing:0px;word-spacing:0px;fill:#000000;fill-opacity:1;stroke:none;font-family:Sans"
             id="flowRoot5323"
             xml:space="preserve"><flowRegion
               id="flowRegion5325"><rect
                 y="1726.2023"
                 x="602.82117"
                 height="52.571678"
                 width="273.37231"
                 id="rect5327" /></flowRegion><flowPara
               id="flowPara5329">RadarServer</flowPara></flowRoot>          <rect
             y="-1197.9954"
             x="1691.4772"
             height="119.48019"
             width="336.77621"
             id="rect5373-6"
             style="fill:#000000;fill-opacity:0;stroke:#000000;stroke-width:3;stroke-miterlimit:4;stroke-opacity:1;stroke-dasharray:none" />
        </g>
        <g
           style="stroke-width:3;stroke-miterlimit:4;stroke-dasharray:none"
           id="g5472"
           transform="translate(-1512.0277,482.01279)">
          <flowRoot
             transform="translate(2187.1593,-3050.5532)"
             style="font-size:40px;font-style:normal;font-weight:normal;line-height:125%;letter-spacing:0px;word-spacing:0px;fill:#000000;fill-opacity:1;stroke:none;font-family:Sans"
             id="flowRoot5323-3"
             xml:space="preserve"><flowRegion
               id="flowRegion5325-4"><rect
                 y="1726.2023"
                 x="602.82117"
                 height="52.571655"
                 width="389.02988"
                 id="rect5327-9" /></flowRegion><flowPara
               id="flowPara5329-4">ScannerServer</flowPara></flowRoot>          <rect
             y="-1361.1146"
             x="2745.3606"
             height="119.43237"
             width="385.79526"
             id="rect5373-6-6"
             style="fill:#000000;fill-opacity:0;stroke:#000000;stroke-width:3;stroke-miterlimit:4;stroke-opacity:1;stroke-dasharray:none" />
        </g>
      </g>
      <flowRoot
         transform="translate(1933.0878,-2039.9227)"
         xml:space="preserve"
         id="flowRoot5443"
         style="font-size:40px;font-style:normal;font-weight:normal;line-height:125%;letter-spacing:0px;word-spacing:0px;fill:#000000;fill-opacity:1;stroke:none;font-family:Sans"><flowRegion
           id="flowRegion5445"><rect
             id="rect5447"
             width="203.27692"
             height="84.114586"
             x="2873.915"
             y="1302.1245" /></flowRegion><flowPara
           id="flowPara5449" /></flowRoot>      <path
         style="fill:none;stroke:#000000;stroke-width:5;stroke-linecap:butt;stroke-linejoin:miter;stroke-miterlimit:4;stroke-opacity:1;stroke-dasharray:none;marker-start:none;marker-end:url(#Arrow1Mend)"
         d="m 2594.8796,-2539.8557 c -295.1675,43.8643 -400.1708,231.1435 -361.3962,531.9842 46.6437,317.3212 414.0428,392.5782 457.6734,231.4806"
         id="path6376"
         inkscape:connector-curvature="0"
         sodipodi:nodetypes="ccc" />
      <path
         style="fill:none;stroke:#000000;stroke-width:5;stroke-linecap:butt;stroke-linejoin:miter;stroke-miterlimit:4;stroke-opacity:1;stroke-dasharray:none;marker-start:url(#Arrow1Mstart);marker-end:url(#Arrow1Mend)"
         d="m 2439.6797,-2723.2678 c -264.0099,79.4994 -206.6984,724.1942 -87.9926,720.6914"
         id="path6376-2"
         inkscape:connector-curvature="0"
         sodipodi:nodetypes="cc" />
      <path
         style="fill:none;stroke:#000000;stroke-width:5;stroke-linecap:butt;stroke-linejoin:miter;stroke-miterlimit:4;stroke-opacity:1;stroke-dasharray:none;marker-start:url(#Arrow1Mstart);marker-end:url(#Arrow1Mend)"
         d="m 3212.0223,-2710.0176 c 301.1307,11.129 -386.3764,537.6332 -384.0314,647.096"
         id="path6376-2-0"
         inkscape:connector-curvature="0"
         sodipodi:nodetypes="cc" />
      <rect
         style="fill:#000000;fill-opacity:0;stroke:#000000;stroke-width:3;stroke-miterlimit:4;stroke-opacity:1;stroke-dasharray:none"
         id="rect5299-6"
         width="1043.8446"
         height="837.20087"
         x="2312.0305"
         y="-2393.8704" />
      <flowRoot
         xml:space="preserve"
         id="flowRoot5303-0"
         style="font-size:40px;font-style:normal;font-weight:normal;line-height:125%;letter-spacing:0px;word-spacing:0px;fill:#000000;fill-opacity:1;stroke:none;font-family:Sans"
         transform="translate(1117.088,-3876.2144)"><flowRegion
           id="flowRegion5305-8"><rect
             id="rect5307-4"
             width="350.62949"
             height="47.827759"
             x="1233.6805"
             y="1498.3918" /></flowRegion><flowPara
           id="flowPara5311-8">hssradar_toolbox</flowPara></flowRoot>      <g
         transform="translate(1306.8924,-1281.176)"
         id="g5482-7"
         style="stroke-width:3;stroke-miterlimit:4;stroke-dasharray:none">
        <text
           xml:space="preserve"
           style="font-size:40px;font-style:normal;font-weight:normal;line-height:125%;letter-spacing:0px;word-spacing:0px;fill:#000000;fill-opacity:1;stroke:none;font-family:Sans"
           x="1185.4459"
           y="-540.86261"
           id="text5341-8"
           sodipodi:linespacing="125%"><tspan
             sodipodi:role="line"
             x="1185.4459"
             y="-540.86261"
             id="tspan5345-1">scanning_radar_server</tspan></text>
        <rect
           style="fill:#000000;fill-opacity:0;stroke:#000000;stroke-width:3;stroke-miterlimit:4;stroke-opacity:1;stroke-dasharray:none"
           id="rect5373-3"
           width="497.84912"
           height="119.33346"
           x="1164.757"
           y="-614.5484" />
      </g>
      <g
         transform="translate(660.20997,-864.88533)"
         id="g5398-3"
         style="stroke-width:3;stroke-miterlimit:4;stroke-dasharray:none">
        <flowRoot
           xml:space="preserve"
           id="flowRoot5323-1"
           style="font-size:40px;font-style:normal;font-weight:normal;line-height:125%;letter-spacing:0px;word-spacing:0px;fill:#000000;fill-opacity:1;stroke:none;font-family:Sans"
           transform="translate(1128.3431,-2890.9147)"><flowRegion
             id="flowRegion5325-1"><rect
               id="rect5327-3"
               width="273.37231"
               height="52.571678"
               x="602.82117"
               y="1726.2023" /></flowRegion><flowPara
             id="flowPara5329-6">radar_server</flowPara></flowRoot>        <rect
           style="fill:#000000;fill-opacity:0;stroke:#000000;stroke-width:3;stroke-miterlimit:4;stroke-opacity:1;stroke-dasharray:none"
           id="rect5373-6-5"
           width="336.77621"
           height="119.48019"
           x="1691.4772"
           y="-1197.9954" />
      </g>
      <g
         transform="translate(-28.195751,-701.80702)"
         id="g5472-1"
         style="stroke-width:3;stroke-miterlimit:4;stroke-dasharray:none">
        <flowRoot
           xml:space="preserve"
           id="flowRoot5323-3-7"
           style="font-size:40px;font-style:normal;font-weight:normal;line-height:125%;letter-spacing:0px;word-spacing:0px;fill:#000000;fill-opacity:1;stroke:none;font-family:Sans"
           transform="translate(2187.1593,-3054.2706)"><flowRegion
             id="flowRegion5325-4-6"><rect
               id="rect5327-9-8"
               width="389.02988"
               height="52.571655"
               x="602.82117"
               y="1726.2023" /></flowRegion><flowPara
             id="flowPara5329-4-3">scanner_server</flowPara></flowRoot>        <rect
           style="fill:#000000;fill-opacity:0;stroke:#000000;stroke-width:3;stroke-miterlimit:4;stroke-opacity:1;stroke-dasharray:none"
           id="rect5373-6-6-6"
           width="385.79526"
           height="119.43237"
           x="2745.3606"
           y="-1361.1146" />
      </g>
      <rect
         style="fill:#000000;fill-opacity:0;stroke:#000000;stroke-width:4.49256134;stroke-miterlimit:4;stroke-opacity:1;stroke-dasharray:none"
         id="rect5299-6-9"
         width="2322.3777"
         height="1156.7562"
         x="1716.9756"
         y="-2408.877" />
      <flowRoot
         xml:space="preserve"
         id="flowRoot5303-0-2"
         style="font-size:40px;font-style:normal;font-weight:normal;line-height:125%;letter-spacing:0px;word-spacing:0px;fill:#000000;fill-opacity:1;stroke:none;font-family:Sans"
         transform="matrix(0.94171405,0,0,0.83695698,600.27104,-3632.887)"><flowRegion
           id="flowRegion5305-8-9"><rect
             id="rect5307-4-2"
             width="80.500298"
             height="57.740757"
             x="1233.6805"
             y="1498.3918" /></flowRegion><flowPara
           id="flowPara5311-8-2">PC</flowPara></flowRoot>      <flowRoot
         xml:space="preserve"
         id="flowRoot6886"
         style="font-size:40px;font-style:normal;font-weight:normal;line-height:125%;letter-spacing:0px;word-spacing:0px;fill:#000000;fill-opacity:1;stroke:none;font-family:Sans"
         transform="translate(1067.0087,-4271.7615)"><flowRegion
           id="flowRegion6888"><rect
             id="rect6890"
             width="454.75507"
             height="71.746483"
             x="1952.8607"
             y="2771.3523" /></flowRegion><flowPara
           id="flowPara6892"
           style="font-size:28px">scanning_radar/peak</flowPara><flowPara
           style="font-size:28px"
           id="flowPara3129">scanning_radar/spectrum</flowPara></flowRoot>      <flowRoot
         xml:space="preserve"
         id="flowRoot6886-9"
         style="font-size:40px;font-style:normal;font-weight:normal;line-height:125%;letter-spacing:0px;word-spacing:0px;fill:#000000;fill-opacity:1;stroke:none;font-family:Sans"
         transform="translate(1446.2675,-4981.4749)"><flowRegion
           id="flowRegion6888-3"><rect
             id="rect6890-8"
             width="448.77554"
             height="118.1504"
             x="1952.8607"
             y="2771.3523" /></flowRegion><flowPara
           id="flowPara6892-2"
           style="font-size:28px">scanner/set_scanner_trajectory</flowPara><flowPara
           id="flowPara6894-2"
           style="font-size:28px">scanner/enable_scanner</flowPara><flowPara
           style="font-size:28px"
           id="flowPara6928">scanner/set_pid_settings</flowPara></flowRoot>      <flowRoot
         xml:space="preserve"
         id="flowRoot6886-9-3"
         style="font-size:40px;font-style:normal;font-weight:normal;line-height:125%;letter-spacing:0px;word-spacing:0px;fill:#000000;fill-opacity:1;stroke:none;font-family:Sans"
         transform="translate(1425.1595,-4754.1508)"><flowRegion
           id="flowRegion6888-3-9"><rect
             id="rect6890-8-3"
             width="194.72119"
             height="42.577873"
             x="1949.7357"
             y="2771.3523" /></flowRegion><flowPara
           style="font-size:28px"
           id="flowPara6928-0">scanner/pose</flowPara></flowRoot>      <path
         style="fill:none;stroke:#ff0000;stroke-width:3;stroke-linecap:butt;stroke-linejoin:miter;stroke-miterlimit:4;stroke-opacity:1;stroke-dasharray:none;marker-start:url(#Arrow1Mstart);marker-end:none"
         d="m 2893.2407,-2068.1563 c 26.4159,-120.7342 49.9159,-154.9888 174.4611,-89.3672 84.1053,44.3143 155.8676,6.2118 329.6134,-0.9304"
         id="path6376-2-8"
         inkscape:connector-curvature="0"
         sodipodi:nodetypes="csc" />
      <path
         style="fill:none;stroke:#0000ff;stroke-width:3;stroke-linecap:butt;stroke-linejoin:miter;stroke-miterlimit:4;stroke-opacity:1;stroke-dasharray:none;marker-start:url(#Arrow1Mstart);marker-end:none"
         d="m 3362.8965,-1963.9037 c -129.69,1.3118 -149.633,-33.35 -258.3619,-57.1249"
         id="path6376-2-8-6"
         inkscape:connector-curvature="0"
         sodipodi:nodetypes="cc" />
      <path
         style="fill:none;stroke:#0000ff;stroke-width:3;stroke-linecap:butt;stroke-linejoin:miter;stroke-miterlimit:4;stroke-opacity:1;stroke-dasharray:none;marker-start:url(#Arrow1Mstart);marker-end:none"
         d="m 3004.4494,-1477.2532 c -30.2688,-19.401 -39.3303,-234.8969 -77.3441,-234.2691 -87.5339,1.4457 -156.8021,-5.8902 -138.9976,-65.2652"
         id="path6376-2-8-6-3"
         inkscape:connector-curvature="0"
         sodipodi:nodetypes="csc" />
      <path
         style="fill:none;stroke:#ff0000;stroke-width:3;stroke-linecap:butt;stroke-linejoin:miter;stroke-miterlimit:4;stroke-opacity:1;stroke-dasharray:none;marker-start:none;marker-end:url(#Arrow1Mend)"
         d="m 2129.0336,-2168.8185 c 67.5624,-6.3586 367.2996,-26.5079 416.4668,105.9378"
         id="path6376-2-8-67"
         inkscape:connector-curvature="0"
         sodipodi:nodetypes="cc" />
      <flowRoot
         xml:space="preserve"
         id="flowRoot6886-9-5"
         style="font-size:40px;font-style:normal;font-weight:normal;line-height:125%;letter-spacing:0px;word-spacing:0px;fill:#000000;fill-opacity:1;stroke:none;font-family:Sans"
         transform="translate(-14.701533,-4624.1847)"><flowRegion
           id="flowRegion6888-3-5"><rect
             id="rect6890-8-1"
             width="529.77521"
             height="116.77201"
             x="1933.3759"
             y="2726.1313" /></flowRegion><flowPara
           style="font-size:28px"
           id="flowPara7733">radar/peak</flowPara><flowPara
           style="font-size:28px"
           id="flowPara6567">radar/spectrum</flowPara><flowPara
           style="font-size:28px"
           id="flowPara3446">radar/analog</flowPara><flowPara
           style="font-size:28px"
           id="flowPara6569" /><flowPara
           style="font-size:28px"
           id="flowPara6565" /></flowRoot>      <path
         style="fill:none;stroke:#0000ff;stroke-width:3;stroke-linecap:butt;stroke-linejoin:miter;stroke-miterlimit:4;stroke-opacity:1;stroke-dasharray:none;marker-start:none;marker-mid:none;marker-end:url(#Arrow1Mend)"
         d="m 2425.2779,-1943.4005 c -14.8533,97.4488 -246.8641,37.904 -327.8859,28.2451"
         id="path6376-2-8-67-7"
         inkscape:connector-curvature="0"
         sodipodi:nodetypes="cc" />
      <flowRoot
         xml:space="preserve"
         id="flowRoot6886-0"
         style="font-size:40px;font-style:normal;font-weight:normal;line-height:125%;letter-spacing:0px;word-spacing:0px;fill:#000000;fill-opacity:1;stroke:none;font-family:Sans"
         transform="translate(-125.43159,-4934.9667)"><flowRegion
           id="flowRegion6888-31"><rect
             id="rect6890-0"
             width="396.69943"
             height="72.284927"
             x="1952.8607"
             y="2771.3523" /></flowRegion><flowPara
           id="flowPara6892-0"
           style="font-size:28px">radar/set_fft_settings</flowPara><flowPara
           id="flowPara6894-6"
           style="font-size:28px">radar/set_processing_mode</flowPara></flowRoot>      <g
         id="g4069"
         transform="translate(2470.4903,-1676.706)">
        <g
           id="g4099"
           transform="translate(182.89929,-61.728511)">
          <text
             xml:space="preserve"
             style="font-size:40px;font-style:normal;font-weight:normal;line-height:125%;letter-spacing:0px;word-spacing:0px;fill:#000000;fill-opacity:1;stroke:none;font-family:Sans"
             x="-705.94128"
             y="-973.47437"
             id="text4015"
             sodipodi:linespacing="125%"><tspan
               sodipodi:role="line"
               id="tspan4017"
               x="-705.94128"
               y="-973.47437">TCP</tspan></text>
          <text
             xml:space="preserve"
             style="font-size:40px;font-style:normal;font-weight:normal;line-height:125%;letter-spacing:0px;word-spacing:0px;fill:#ff0000;fill-opacity:1;stroke:none;font-family:Sans"
             x="-708.69519"
             y="-890.32648"
             id="text4015-3"
             sodipodi:linespacing="125%"><tspan
               sodipodi:role="line"
               id="tspan4017-1"
               x="-708.69519"
               y="-890.32648">Servicios</tspan></text>
          <text
             xml:space="preserve"
             style="font-size:40px;font-style:normal;font-weight:normal;line-height:125%;letter-spacing:0px;word-spacing:0px;fill:#000000;fill-opacity:1;stroke:none;font-family:Sans"
             x="-705.94128"
             y="-931.90039"
             id="text4015-7"
             sodipodi:linespacing="125%"><tspan
               sodipodi:role="line"
               id="tspan4017-7"
               x="-705.94128"
               y="-931.90039"
               style="fill:#0000ff;fill-opacity:1;fill-rule:nonzero">Tópicos</tspan></text>
          <flowRoot
             transform="translate(-1526.3021,-3546.6745)"
             style="font-size:40px;font-style:normal;font-weight:normal;line-height:125%;letter-spacing:0px;word-spacing:0px;fill:#000000;fill-opacity:1;stroke:none;font-family:Sans"
             id="flowRoot4084"
             xml:space="preserve"><flowRegion
               id="flowRegion4086"><rect
                 y="2485.9875"
                 x="778.46509"
                 height="50.29734"
                 width="184.0424"
                 id="rect4088" /></flowRegion><flowPara
               id="flowPara4090">Leyenda</flowPara></flowRoot>          <rect
             y="-1060.8523"
             x="-756.00403"
             height="187.80205"
             width="260.96176"
             id="rect4094"
             style="fill:none;stroke:#000000;stroke-width:0.66973323;stroke-linecap:square;stroke-linejoin:bevel;stroke-miterlimit:4;stroke-opacity:1;stroke-dasharray:none" />
        </g>
      </g>
      <flowRoot
         xml:space="preserve"
         id="flowRoot3122"
         style="font-size:40px;font-style:normal;font-weight:normal;line-height:125%;letter-spacing:0px;word-spacing:0px;fill:#000000;fill-opacity:1;stroke:none;font-family:Sans"
         transform="translate(1811.9818,-1307.0217)"><flowRegion
           id="flowRegion3124"><rect
             id="rect3126"
             width="0"
             height="53.125"
             x="2034.375"
             y="691.09021" /></flowRegion><flowPara
           id="flowPara3128" /></flowRoot>      <path
         style="fill:none;stroke:#0000ff;stroke-width:3;stroke-linecap:butt;stroke-linejoin:miter;stroke-miterlimit:4;stroke-opacity:1;stroke-dasharray:none;marker-start:url(#Arrow1Mstart);marker-end:none"
         d="m 3061.3824,-1823.6012 c -58.6964,3.3211 -51.4298,109.0231 -132.3369,112.0583"
         id="path6376-2-8-6-3-6"
         inkscape:connector-curvature="0"
         sodipodi:nodetypes="cc" />
      <path
         style="fill:none;stroke:#0000ff;stroke-width:3;stroke-linecap:butt;stroke-linejoin:miter;stroke-miterlimit:4;stroke-opacity:1;stroke-dasharray:none;marker-start:url(#Arrow1Mstart);marker-end:none"
         d="m 3431.1147,-1824.4375 c -60.8768,0 -168.9767,1.4363 -168.9767,1.4363"
         id="path6376-2-8-6-3-6-4"
         inkscape:connector-curvature="0"
         sodipodi:nodetypes="cc" />
      <flowRoot
         xml:space="preserve"
         id="flowRoot6886-6"
         style="font-size:40px;font-style:normal;font-weight:normal;line-height:125%;letter-spacing:0px;word-spacing:0px;fill:#000000;fill-opacity:1;stroke:none;font-family:Sans"
         transform="translate(1481.4755,-4615.6955)"><flowRegion
           id="flowRegion6888-8"><rect
             id="rect6890-7"
             width="102.30647"
             height="35.286411"
             x="1952.8607"
             y="2771.3523" /></flowRegion><flowPara
           style="font-size:28px"
           id="flowPara3448">clouds</flowPara></flowRoot>      <g
         transform="translate(1633.195,-1440.2558)"
         id="g5482-7-0"
         style="stroke-width:3;stroke-miterlimit:4;stroke-dasharray:none" />
      <g
         transform="translate(1520.535,-1281.6677)"
         id="g5482-7-5"
         style="stroke-width:3;stroke-miterlimit:4;stroke-dasharray:none">
        <text
           xml:space="preserve"
           style="font-size:40px;font-style:normal;font-weight:normal;line-height:125%;letter-spacing:0px;word-spacing:0px;fill:#000000;fill-opacity:1;stroke:none;font-family:Sans"
           x="1581.4093"
           y="-540.86261"
           id="text5341-8-9"
           sodipodi:linespacing="125%"><tspan
             sodipodi:role="line"
             x="1581.4093"
             y="-540.86261"
             id="tspan3199">clouds</tspan></text>
        <rect
           style="fill:#000000;fill-opacity:0;stroke:#000000;stroke-width:3;stroke-miterlimit:4;stroke-opacity:1;stroke-dasharray:none"
           id="rect5373-3-4"
           width="196.37692"
           height="119.33347"
           x="1545.4216"
           y="-614.5484" />
      </g>
      <g
         transform="translate(1521.0732,-1134.168)"
         id="g5482-7-5-3"
         style="stroke-width:3;stroke-miterlimit:4;stroke-dasharray:none">
        <text
           xml:space="preserve"
           style="font-size:40px;font-style:normal;font-weight:normal;line-height:125%;letter-spacing:0px;word-spacing:0px;fill:#000000;fill-opacity:1;stroke:none;font-family:Sans"
           x="1506.7375"
           y="-540.86261"
           id="text5341-8-9-0"
           sodipodi:linespacing="125%"><tspan
             sodipodi:role="line"
             x="1506.7375"
             y="-540.86261"
             id="tspan3199-2">cfar_processor</tspan></text>
        <rect
           style="fill:#000000;fill-opacity:0;stroke:#000000;stroke-width:3;stroke-miterlimit:4;stroke-opacity:1;stroke-dasharray:none"
           id="rect5373-3-4-2"
           width="334.23254"
           height="119.33347"
           x="1484.1525"
           y="-614.5484" />
      </g>
      <path
         style="fill:none;stroke:#0000ff;stroke-width:3;stroke-linecap:butt;stroke-linejoin:miter;stroke-miterlimit:4;stroke-opacity:1;stroke-dasharray:none;marker-start:url(#Arrow1Mstart);marker-end:none"
         d="m 3277.7667,-1748.7164 c 50.9797,-36.12 91.7327,-75.4246 56.9533,-75.1135"
         id="path6376-2-8-6-3-6-4-6"
         inkscape:connector-curvature="0"
         sodipodi:nodetypes="cc" />
      <flowRoot
         xml:space="preserve"
         id="flowRoot6886-6-8"
         style="font-size:40px;font-style:normal;font-weight:normal;line-height:125%;letter-spacing:0px;word-spacing:0px;fill:#000000;fill-opacity:1;stroke:none;font-family:Sans"
         transform="translate(1486.7299,-4462.0169)"><flowRegion
           id="flowRegion6888-8-5"><rect
             id="rect6890-7-7"
             width="284.76611"
             height="35.981102"
             x="1929.668"
             y="2752.8152"
             ry="17.990551"
             rx="0" /></flowRegion><flowPara
           style="font-size:28px"
           id="flowPara3448-4">processed_clouds</flowPara></flowRoot>      <path
         style="fill:none;stroke:#0000ff;stroke-width:3;stroke-linecap:butt;stroke-linejoin:miter;stroke-miterlimit:4;stroke-opacity:1;stroke-dasharray:none;marker-start:url(#Arrow1Mstart);marker-end:none"
         d="m 3416.3862,-1681.2954 c -24.8023,0.3938 -42.1486,-0.9618 -76.928,-0.6507"
         id="path6376-2-8-6-3-6-4-6-3"
         inkscape:connector-curvature="0"
         sodipodi:nodetypes="cc" />
      <g
         transform="translate(1147.2026,-1082.8868)"
         id="g5482-7-5-4"
         style="stroke-width:3;stroke-miterlimit:4;stroke-dasharray:none">
        <text
           xml:space="preserve"
           style="font-size:40px;font-style:normal;font-weight:normal;line-height:125%;letter-spacing:0px;word-spacing:0px;fill:#000000;fill-opacity:1;stroke:none;font-family:Sans"
           x="1578.9813"
           y="-538.43463"
           id="text5341-8-9-6"
           sodipodi:linespacing="125%"><tspan
             sodipodi:role="line"
             x="1578.9813"
             y="-538.43463"
             id="tspan3199-5">common</tspan></text>
        <rect
           style="fill:#000000;fill-opacity:0;stroke:#000000;stroke-width:3;stroke-miterlimit:4;stroke-opacity:1;stroke-dasharray:none"
           id="rect5373-3-4-9"
           width="232.79628"
           height="119.33347"
           x="1545.4216"
           y="-614.5484" />
      </g>
      <path
         style="fill:none;stroke:#ff0000;stroke-width:3;stroke-linecap:butt;stroke-linejoin:miter;stroke-miterlimit:4;stroke-opacity:1;stroke-dasharray:none;marker-start:none;marker-end:none"
         d="m 2631.9682,-2198.0677 c -57.3755,-17.1688 -204.2435,12.724 -159.4957,63.4105"
         id="path6376-2-8-67-4"
         inkscape:connector-curvature="0"
         sodipodi:nodetypes="cc" />
      <path
         style="fill:none;stroke:#ff0000;stroke-width:3;stroke-linecap:butt;stroke-linejoin:miter;stroke-miterlimit:4;stroke-opacity:1;stroke-dasharray:none;marker-start:none;marker-end:none"
         d="m 2758.2353,-2196.0367 c 57.3755,-17.1688 209.8951,-15.6403 165.1473,35.0462"
         id="path6376-2-8-67-4-2"
         inkscape:connector-curvature="0"
         sodipodi:nodetypes="cc" />
      <g
         transform="translate(1030.3074,-1585.6597)"
         id="g5482-7-5-4-2"
         style="stroke-width:3;stroke-miterlimit:4;stroke-dasharray:none" />
      <g
         transform="translate(1046.0627,-1643.4613)"
         id="g5482-7-5-4-7"
         style="stroke-width:3;stroke-miterlimit:4;stroke-dasharray:none">
        <text
           xml:space="preserve"
           style="font-size:40px;font-style:normal;font-weight:normal;line-height:125%;letter-spacing:0px;word-spacing:0px;fill:#000000;fill-opacity:1;stroke:none;font-family:Sans"
           x="1650.3346"
           y="-538.43463"
           id="text5341-8-9-6-6"
           sodipodi:linespacing="125%"><tspan
             sodipodi:role="line"
             x="1650.3346"
             y="-538.43463"
             style="text-align:center;text-anchor:middle"
             id="tspan3994">gui</tspan></text>
        <rect
           style="fill:#000000;fill-opacity:0;stroke:#000000;stroke-width:3;stroke-miterlimit:4;stroke-opacity:1;stroke-dasharray:none"
           id="rect5373-3-4-9-4"
           width="126.26708"
           height="119.33347"
           x="1585.9055"
           y="-614.5484" />
      </g>
    </g>
  </g>
</svg>
