\relax 
\catcode`"\active
\catcode`<\active
\catcode`>\active
\@nameuse{es@quoting}
\catcode`'\active
\ifx\hyper@anchor\@undefined
\global \let \oldcontentsline\contentsline
\gdef \contentsline#1#2#3#4{\oldcontentsline{#1}{#2}{#3}}
\global \let \oldnewlabel\newlabel
\gdef \newlabel#1#2{\newlabelxx{#1}#2}
\gdef \newlabelxx#1#2#3#4#5#6{\oldnewlabel{#1}{{#2}{#3}}}
\AtEndDocument{\let \contentsline\oldcontentsline
\let \newlabel\oldnewlabel}
\else
\global \let \hyper@last\relax 
\fi

\select@language{spanish}
\@writefile{toc}{\select@language{spanish}}
\@writefile{lof}{\select@language{spanish}}
\@writefile{lot}{\select@language{spanish}}
\select@language{spanish}
\@writefile{toc}{\select@language{spanish}}
\@writefile{lof}{\select@language{spanish}}
\@writefile{lot}{\select@language{spanish}}
\@writefile{toc}{\contentsline {chapter}{Resumen}{\es@scroman  {i}}{section*.1}}
\@writefile{toc}{\contentsline {chapter}{Agradecimientos}{\es@scroman  {iii}}{chapter*.2}}
\citation{martinez2012}
\citation{ma}
\citation{martinez2012}
\citation{amtc}
\citation{ros:intro}
\@writefile{toc}{\contentsline {chapter}{\numberline {1}Introducci\IeC {\'o}n}{3}{chapter.1}}
\@writefile{lof}{\addvspace {10\p@ }}
\@writefile{lot}{\addvspace {10\p@ }}
\@writefile{toc}{\contentsline {section}{\numberline {1.1}Motivaci\IeC {\'o}n}{3}{section.1.1}}
\@writefile{toc}{\contentsline {section}{\numberline {1.2}Objetivos del proyecto}{4}{section.1.2}}
\newlabel{objetivos}{{1.2}{4}{Objetivos del proyecto\relax }{section.1.2}{}}
\@writefile{toc}{\contentsline {subsection}{\numberline {1.2.1}Objetivo general}{4}{subsection.1.2.1}}
\@writefile{toc}{\contentsline {subsection}{\numberline {1.2.2}Objetivos espec\IeC {\'\i }ficos}{4}{subsection.1.2.2}}
\@writefile{toc}{\contentsline {section}{\numberline {1.3}Estructura de la memoria}{5}{section.1.3}}
\@writefile{toc}{\contentsline {chapter}{\numberline {2}Antecedentes}{6}{chapter.2}}
\@writefile{lof}{\addvspace {10\p@ }}
\@writefile{lot}{\addvspace {10\p@ }}
\@writefile{toc}{\contentsline {section}{\numberline {2.1}Radar}{6}{section.2.1}}
\@writefile{lof}{\contentsline {figure}{\numberline {2.1}{\ignorespaces \relax \fontsize  {10.95}{13.6}\selectfont  \abovedisplayskip 11\p@ plus3\p@ minus6\p@ \abovedisplayshortskip \z@ plus3\p@ \belowdisplayshortskip 6.5\p@ plus3.5\p@ minus3\p@ \def \leftmargin \leftmargini \topsep \z@ \parsep \parskip \itemsep \z@ {\leftmargin \leftmargini \topsep 9\p@ plus3\p@ minus5\p@ \parsep 4.5\p@ plus2\p@ minus\p@ \itemsep \parsep }\belowdisplayskip \abovedisplayskip {Principio de funcionamiento del radar. Al cambiar de medio, una onda emitida (l\IeC {\'\i }nea negra), se divide en dos: Una onda reflejada (l\IeC {\'\i }nea roja) y una onda transmitida (l\IeC {\'\i }nea gris).}}}{6}{figure.2.1}}
\newlabel{radar_reflexion}{{2.1}{6}{\small {Principio de funcionamiento del radar. Al cambiar de medio, una onda emitida (línea negra), se divide en dos: Una onda reflejada (línea roja) y una onda transmitida (línea gris).}\relax }{figure.2.1}{}}
\citation{ma}
\citation{ma}
\citation{ma2012}
\@writefile{lof}{\contentsline {figure}{\numberline {2.2}{\ignorespaces Mediciones tomadas por un radar en una habitaci\IeC {\'o}n rectangular. Se puede ver que los m\IeC {\'a}ximos en cada medici\IeC {\'o}n angular forman un rect\IeC {\'a}ngulo, mostrando las paredes del entorno. Tomado de \cite  {ma}.}}{7}{figure.2.2}}
\newlabel{radar}{{2.2}{7}{Mediciones tomadas por un radar en una habitación rectangular. Se puede ver que los máximos en cada medición angular forman un rectángulo, mostrando las paredes del entorno. Tomado de \cite {ma}}{figure.2.2}{}}
\@writefile{toc}{\contentsline {subsection}{\numberline {2.1.1}Medici\IeC {\'o}n de distancias con radar}{7}{subsection.2.1.1}}
\newlabel{radar_medicion}{{2.1.1}{7}{Medición de distancias con radar\relax }{subsection.2.1.1}{}}
\@writefile{toc}{\contentsline {subsubsection}{\numberline {2.1.1.1}Tiempo de vuelo (Time-of-flight, TOF)}{7}{subsubsection.2.1.1.1}}
\newlabel{radar_tof_ecuacion}{{2.1}{7}{Tiempo de vuelo (Time-of-flight, TOF)\relax }{equation.2.1.1}{}}
\citation{ma2012}
\@writefile{lof}{\contentsline {figure}{\numberline {2.3}{\ignorespaces Diagrama de tiempo de la t\IeC {\'e}cnica de tiempo de vuelo. El tiempo transcurre de arriba hacia abajo y las distancias se miden de izquierda a derecha. Primero, el radar env\IeC {\'\i }a un pulso, el cual se refleja y transmite en el obst\IeC {\'a}culo 1. Luego se refleja en el obst\IeC {\'a}culo 2. Finalmente, el radar recibe los pulsos reflejados, con los que se calcula la distancia usando la ecuaci\IeC {\'o}n \ref  {radar_tof_ecuacion}.}}{8}{figure.2.3}}
\newlabel{radar_tof}{{2.3}{8}{Diagrama de tiempo de la técnica de tiempo de vuelo. El tiempo transcurre de arriba hacia abajo y las distancias se miden de izquierda a derecha. Primero, el radar envía un pulso, el cual se refleja y transmite en el obstáculo 1. Luego se refleja en el obstáculo 2. Finalmente, el radar recibe los pulsos reflejados, con los que se calcula la distancia usando la ecuación \ref {radar_tof_ecuacion}}{figure.2.3}{}}
\@writefile{toc}{\contentsline {subsubsection}{\numberline {2.1.1.2}Onda continua modulada en frecuencia (FMCW)}{8}{subsubsection.2.1.1.2}}
\@writefile{lof}{\contentsline {figure}{\numberline {2.4}{\ignorespaces Ondas generadas en un radar FMCW. El gr\IeC {\'a}fico superior muestra la se\IeC {\~n}al que emite el radar, y el gr\IeC {\'a}fico inferior muestra la frecuencia de esta se\IeC {\~n}al. En este caso la frecuencia de la onda portadora es de 10 \si {\hertz }.}}{9}{figure.2.4}}
\newlabel{radar_fmcw_funcionamiento}{{2.4}{9}{Ondas generadas en un radar FMCW. El gráfico superior muestra la señal que emite el radar, y el gráfico inferior muestra la frecuencia de esta señal. En este caso la frecuencia de la onda portadora es de 10 \si {\hertz }}{figure.2.4}{}}
\newlabel{radar_fmcw_ecuacion}{{2.2}{9}{Onda continua modulada en frecuencia (FMCW)\relax }{equation.2.1.2}{}}
\@writefile{lof}{\contentsline {figure}{\numberline {2.5}{\ignorespaces Interacci\IeC {\'o}n entre las variables asociadas en la ecuaci\IeC {\'o}n \ref  {radar_fmcw_ecuacion}.}}{9}{figure.2.5}}
\newlabel{radar_fmcw}{{2.5}{9}{Interacción entre las variables asociadas en la ecuación \ref {radar_fmcw_ecuacion}}{figure.2.5}{}}
\citation{ma2012}
\@writefile{toc}{\contentsline {subsection}{\numberline {2.1.2}Medidas en un radar y pre-procesamiento}{10}{subsection.2.1.2}}
\newlabel{radar_pre_procesamiento}{{2.1.2}{10}{Medidas en un radar y pre-procesamiento\relax }{subsection.2.1.2}{}}
\newlabel{radar_medida}{{2.5}{10}{Medidas en un radar y pre-procesamiento\relax }{equation.2.1.4}{}}
\@writefile{toc}{\contentsline {subsubsection}{\numberline {2.1.2.1}Compresi\IeC {\'o}n logar\IeC {\'\i }tmica}{10}{subsubsection.2.1.2.1}}
\newlabel{radar_cl}{{2.7}{10}{Compresión logarítmica\relax }{equation.2.1.6}{}}
\citation{ma2012}
\@writefile{toc}{\contentsline {subsubsection}{\numberline {2.1.2.2}Compensaci\IeC {\'o}n de rango}{11}{subsubsection.2.1.2.2}}
\@writefile{toc}{\contentsline {subsection}{\numberline {2.1.3}Post-procesamiento de mediciones}{11}{subsection.2.1.3}}
\@writefile{toc}{\contentsline {subsubsection}{\numberline {2.1.3.1}Aplicaci\IeC {\'o}n de umbral fijo}{11}{subsubsection.2.1.3.1}}
\@writefile{toc}{\contentsline {subsubsection}{\numberline {2.1.3.2}Aplicaci\IeC {\'o}n de umbral adaptativo}{12}{subsubsection.2.1.3.2}}
\newlabel{radar_cfar}{{2.1.3.2}{12}{Aplicación de umbral adaptativo\relax }{subsubsection.2.1.3.2}{}}
\newlabel{radar_h0}{{2.10}{12}{Aplicación de umbral adaptativo\relax }{equation.2.1.10}{}}
\newlabel{radar_h1}{{2.11}{12}{Aplicación de umbral adaptativo\relax }{equation.2.1.11}{}}
\citation{ros:intro}
\citation{ros:intro}
\citation{ros:rpc}
\@writefile{toc}{\contentsline {section}{\numberline {2.2}Robot Operating System}{13}{section.2.2}}
\newlabel{robot_operating_system}{{2.2}{13}{Robot Operating System\relax }{section.2.2}{}}
\citation{gof1995}
\@writefile{toc}{\contentsline {subsection}{\numberline {2.2.1}Servidor de par\IeC {\'a}metros}{14}{subsection.2.2.1}}
\citation{ros:rviz}
\citation{ros:rqt_plot}
\@writefile{toc}{\contentsline {subsection}{\numberline {2.2.2}Roslaunch}{15}{subsection.2.2.2}}
\@writefile{toc}{\contentsline {subsection}{\numberline {2.2.3}Rviz y Rqt\_plot}{15}{subsection.2.2.3}}
\@writefile{toc}{\contentsline {subsection}{\numberline {2.2.4}Rosbag}{15}{subsection.2.2.4}}
\@writefile{toc}{\contentsline {section}{\numberline {2.3}Equipos utilizados}{16}{section.2.3}}
\@writefile{toc}{\contentsline {subsection}{\numberline {2.3.1}Radar}{16}{subsection.2.3.1}}
\@writefile{lof}{\contentsline {figure}{\numberline {2.6}{\ignorespaces Radar Acumine.}}{16}{figure.2.6}}
\newlabel{radar_hardware}{{2.6}{16}{Radar Acumine}{figure.2.6}{}}
\citation{ogata2001}
\citation{martinez2012}
\citation{martinez2012}
\@writefile{lof}{\contentsline {figure}{\numberline {2.7}{\ignorespaces Interfaz l\IeC {\'o}gica ofrecida por el radar \cite  {martinez2012}.}}{17}{figure.2.7}}
\newlabel{radar_interfaz}{{2.7}{17}{Interfaz lógica ofrecida por el radar \cite {martinez2012}}{figure.2.7}{}}
\citation{martinez2012}
\@writefile{lof}{\contentsline {figure}{\numberline {2.8}{\ignorespaces Estructura general de los mensajes enviados por el radar.}}{18}{figure.2.8}}
\newlabel{protocolo}{{2.8}{18}{Estructura general de los mensajes enviados por el radar}{figure.2.8}{}}
\@writefile{lot}{\contentsline {table}{\numberline {2.1}{\ignorespaces Especificaciones t\IeC {\'e}cnicas del radar utilizado.}}{18}{table.2.1}}
\newlabel{radar_specs}{{2.1}{18}{Especificaciones técnicas del radar utilizado}{table.2.1}{}}
\@writefile{toc}{\contentsline {subsection}{\numberline {2.3.2}L\IeC {\'a}ser}{18}{subsection.2.3.2}}
\@writefile{lot}{\contentsline {table}{\numberline {2.2}{\ignorespaces Especificaciones t\IeC {\'e}cnicas del sensor l\IeC {\'a}ser utilizado.}}{18}{table.2.2}}
\newlabel{laser_specs}{{2.2}{18}{Especificaciones técnicas del sensor láser utilizado}{table.2.2}{}}
\@writefile{lof}{\contentsline {figure}{\numberline {2.9}{\ignorespaces Sensor l\IeC {\'a}ser SICK.}}{18}{figure.2.9}}
\newlabel{laser_hardware}{{2.9}{18}{Sensor láser SICK}{figure.2.9}{}}
\citation{chin2009}
\citation{chin2009}
\@writefile{toc}{\contentsline {subsection}{\numberline {2.3.3}Base m\IeC {\'o}vil}{19}{subsection.2.3.3}}
\@writefile{lot}{\contentsline {table}{\numberline {2.3}{\ignorespaces Especificaciones t\IeC {\'e}cnicas de la base m\IeC {\'o}vil utilizada.}}{19}{table.2.3}}
\newlabel{husky_specs}{{2.3}{19}{Especificaciones técnicas de la base móvil utilizada}{table.2.3}{}}
\@writefile{lof}{\contentsline {figure}{\numberline {2.10}{\ignorespaces Base m\IeC {\'o}vil Husky.}}{19}{figure.2.10}}
\newlabel{husky_hardware}{{2.10}{19}{Base móvil Husky}{figure.2.10}{}}
\@writefile{toc}{\contentsline {section}{\numberline {2.4}Experiencias similares y el aporte de esta memoria}{19}{section.2.4}}
\@writefile{toc}{\contentsline {chapter}{\numberline {3}Dise\IeC {\~n}o e implementaci\IeC {\'o}n}{20}{chapter.3}}
\@writefile{lof}{\addvspace {10\p@ }}
\@writefile{lot}{\addvspace {10\p@ }}
\@writefile{toc}{\contentsline {section}{\numberline {3.1}Requerimientos}{20}{section.3.1}}
\citation{martinez2012}
\@writefile{toc}{\contentsline {section}{\numberline {3.2}Decisiones de dise\IeC {\~n}o}{21}{section.3.2}}
\newlabel{decisiones_priori}{{3.2}{21}{Decisiones de diseño\relax }{section.3.2}{}}
\@writefile{toc}{\contentsline {subsection}{\numberline {3.2.1}Lenguajes de programaci\IeC {\'o}n}{21}{subsection.3.2.1}}
\@writefile{toc}{\contentsline {subsection}{\numberline {3.2.2}Interfaz a ROS}{21}{subsection.3.2.2}}
\citation{tkinter}
\citation{wxpython}
\citation{ros:kinect}
\citation{Rusu_ICRA2011_PCL}
\citation{martinez2012}
\@writefile{toc}{\contentsline {subsection}{\numberline {3.2.3}Interfaz gr\IeC {\'a}fica}{22}{subsection.3.2.3}}
\@writefile{toc}{\contentsline {subsection}{\numberline {3.2.4}Visualizaci\IeC {\'o}n de datos}{22}{subsection.3.2.4}}
\@writefile{toc}{\contentsline {section}{\numberline {3.3}Estructura general del software}{22}{section.3.3}}
\@writefile{lof}{\contentsline {figure}{\numberline {3.1}{\ignorespaces Estructura general de los nodos implementados y su interfaz a ROS.}}{23}{figure.3.1}}
\newlabel{estructura_general}{{3.1}{23}{Estructura general de los nodos implementados y su interfaz a ROS}{figure.3.1}{}}
\@writefile{toc}{\contentsline {section}{\numberline {3.4}Decisiones incidentales}{24}{section.3.4}}
\@writefile{toc}{\contentsline {subsection}{\numberline {3.4.1}Lectura y escritura de mensajes}{24}{subsection.3.4.1}}
\@writefile{toc}{\contentsline {subsection}{\numberline {3.4.2}\textit  {Sockets} y sincronizaci\IeC {\'o}n}{24}{subsection.3.4.2}}
\@writefile{toc}{\contentsline {subsection}{\numberline {3.4.3}Robustez de la conexi\IeC {\'o}n}{25}{subsection.3.4.3}}
\@writefile{toc}{\contentsline {subsection}{\numberline {3.4.4}Par\IeC {\'a}metros del radar y configuraci\IeC {\'o}n}{25}{subsection.3.4.4}}
\@writefile{toc}{\contentsline {subsection}{\numberline {3.4.5}Medici\IeC {\'o}n de datos desde el radar}{25}{subsection.3.4.5}}
\@writefile{toc}{\contentsline {section}{\numberline {3.5}Funcionalidades implementadas}{26}{section.3.5}}
\@writefile{toc}{\contentsline {subsection}{\numberline {3.5.1}Nodos de comunicaciones}{26}{subsection.3.5.1}}
\@writefile{toc}{\contentsline {subsection}{\numberline {3.5.2}Interfaz gr\IeC {\'a}fica}{27}{subsection.3.5.2}}
\newlabel{gui_radar}{{3.2(a)}{27}{Subfigure 3 3.2(a)\relax }{subfigure.3.2.1}{}}
\newlabel{sub@gui_radar}{{(a)}{27}{Subfigure 3 3.2(a)\relax }{subfigure.3.2.1}{}}
\newlabel{gui_scanner}{{3.2(b)}{27}{Subfigure 3 3.2(b)\relax }{subfigure.3.2.2}{}}
\newlabel{sub@gui_scanner}{{(b)}{27}{Subfigure 3 3.2(b)\relax }{subfigure.3.2.2}{}}
\newlabel{gui_menu}{{3.2(c)}{27}{Subfigure 3 3.2(c)\relax }{subfigure.3.2.3}{}}
\newlabel{sub@gui_menu}{{(c)}{27}{Subfigure 3 3.2(c)\relax }{subfigure.3.2.3}{}}
\@writefile{lof}{\contentsline {figure}{\numberline {3.2}{\ignorespaces Interfaz gr\IeC {\'a}fica del sistema implementado.}}{27}{figure.3.2}}
\@writefile{lof}{\contentsline {subfigure}{\numberline{(a)}{\ignorespaces {Controles del radar}}}{27}{figure.3.2}}
\@writefile{lof}{\contentsline {subfigure}{\numberline{(b)}{\ignorespaces {Controles del \textit {scanner}}}}{27}{figure.3.2}}
\@writefile{lof}{\contentsline {subfigure}{\numberline{(c)}{\ignorespaces {Menu principal}}}{27}{figure.3.2}}
\newlabel{radar_gui}{{3.2}{27}{Interfaz gráfica del sistema implementado}{figure.3.2}{}}
\citation{martinez2012}
\@writefile{toc}{\contentsline {subsection}{\numberline {3.5.3}Nubes de puntos}{28}{subsection.3.5.3}}
\@writefile{toc}{\contentsline {subsection}{\numberline {3.5.4}Detecci\IeC {\'o}n de obst\IeC {\'a}culos}{29}{subsection.3.5.4}}
\@writefile{toc}{\contentsline {subsection}{\numberline {3.5.5}Lanzadores}{29}{subsection.3.5.5}}
\@writefile{toc}{\contentsline {section}{\numberline {3.6}Modos de uso del sistema}{30}{section.3.6}}
\@writefile{toc}{\contentsline {chapter}{\numberline {4}Resultados}{31}{chapter.4}}
\@writefile{lof}{\addvspace {10\p@ }}
\@writefile{lot}{\addvspace {10\p@ }}
\newlabel{resultados}{{4}{31}{Resultados\relax }{chapter.4}{}}
\@writefile{toc}{\contentsline {section}{\numberline {4.1}Desempe\IeC {\~n}o en la red}{31}{section.4.1}}
\@writefile{lot}{\contentsline {table}{\numberline {4.1}{\ignorespaces Ancho de banda ocupado por cada servidor en distintos modos de operaci\IeC {\'o}n del radar.}}{31}{table.4.1}}
\newlabel{ancho_de_banda}{{4.1}{31}{Ancho de banda ocupado por cada servidor en distintos modos de operación del radar}{table.4.1}{}}
\@writefile{toc}{\contentsline {section}{\numberline {4.2}Pruebas de \textit  {scanner}}{32}{section.4.2}}
\@writefile{lof}{\contentsline {figure}{\numberline {4.1}{\ignorespaces Control de rapidez del \textit  {scanner}.}}{32}{figure.4.1}}
\@writefile{lof}{\contentsline {subfigure}{\numberline{(a)}{\ignorespaces {\textit {Scanner} a $360$\si {\degree \per \second }.}}}{32}{figure.4.1}}
\@writefile{lof}{\contentsline {subfigure}{\numberline{(b)}{\ignorespaces {\textit {Scanner} a $720$\si {\degree \per \second }.}}}{32}{figure.4.1}}
\newlabel{scanner_giro}{{4.1}{32}{Control de rapidez del \textit {scanner}}{figure.4.1}{}}
\@writefile{lof}{\contentsline {figure}{\numberline {4.2}{\ignorespaces Primera prueba de control de posici\IeC {\'o}n del \textit  {scanner}.}}{33}{figure.4.2}}
\@writefile{lof}{\contentsline {subfigure}{\numberline{(a)}{\ignorespaces {\textit {Scanner} desde $90$ \si {\degree } a $270$ \si {\degree }.}}}{33}{figure.4.2}}
\@writefile{lof}{\contentsline {subfigure}{\numberline{(b)}{\ignorespaces {\textit {Scanner} desde $270$ \si {\degree } a $90$ \si {\degree }.}}}{33}{figure.4.2}}
\newlabel{scanner_1}{{4.2}{33}{Primera prueba de control de posición del \textit {scanner}}{figure.4.2}{}}
\@writefile{lof}{\contentsline {figure}{\numberline {4.3}{\ignorespaces Segunda prueba de control de posici\IeC {\'o}n del \textit  {scanner}.}}{34}{figure.4.3}}
\@writefile{lof}{\contentsline {subfigure}{\numberline{(a)}{\ignorespaces {\textit {Scanner} desde $90$ \si {\degree } a $270$ \si {\degree }.}}}{34}{figure.4.3}}
\@writefile{lof}{\contentsline {subfigure}{\numberline{(b)}{\ignorespaces {\textit {Scanner} desde $270$ \si {\degree } a $90$ \si {\degree }.}}}{34}{figure.4.3}}
\newlabel{scanner_2}{{4.3}{34}{Segunda prueba de control de posición del \textit {scanner}}{figure.4.3}{}}
\@writefile{lof}{\contentsline {figure}{\numberline {4.4}{\ignorespaces Tercera prueba de control de posici\IeC {\'o}n del \textit  {scanner}.}}{34}{figure.4.4}}
\@writefile{lof}{\contentsline {subfigure}{\numberline{(a)}{\ignorespaces {\textit {Scanner} desde $90$ \si {\degree } a $270$ \si {\degree }.}}}{34}{figure.4.4}}
\@writefile{lof}{\contentsline {subfigure}{\numberline{(b)}{\ignorespaces {\textit {Scanner} desde $270$ \si {\degree } a $90$ \si {\degree }.}}}{34}{figure.4.4}}
\newlabel{scanner_3}{{4.4}{34}{Tercera prueba de control de posición del \textit {scanner}}{figure.4.4}{}}
\citation{ogata2001}
\@writefile{toc}{\contentsline {section}{\numberline {4.3}Pruebas de radar}{35}{section.4.3}}
\@writefile{lof}{\contentsline {figure}{\numberline {4.5}{\ignorespaces Modo de \textit  {peak} m\IeC {\'a}s potente.}}{35}{figure.4.5}}
\@writefile{lof}{\contentsline {subfigure}{\numberline{(a)}{\ignorespaces {Datos de cliente original.}}}{35}{figure.4.5}}
\@writefile{lof}{\contentsline {subfigure}{\numberline{(b)}{\ignorespaces {Datos de mensajes de ROS.}}}{35}{figure.4.5}}
\newlabel{lab_highest_intensity_peak}{{4.5}{35}{Modo de \textit {peak} más potente}{figure.4.5}{}}
\@writefile{lof}{\contentsline {figure}{\numberline {4.6}{\ignorespaces Modo de \textit  {peak} m\IeC {\'a}s cercano.}}{36}{figure.4.6}}
\@writefile{lof}{\contentsline {subfigure}{\numberline{(a)}{\ignorespaces {Datos de cliente original.}}}{36}{figure.4.6}}
\@writefile{lof}{\contentsline {subfigure}{\numberline{(b)}{\ignorespaces {Datos de mensajes de ROS.}}}{36}{figure.4.6}}
\newlabel{lab_low_range_peak}{{4.6}{36}{Modo de \textit {peak} más cercano}{figure.4.6}{}}
\@writefile{lof}{\contentsline {figure}{\numberline {4.7}{\ignorespaces Modo de \textit  {peak} m\IeC {\'a}s lejano.}}{36}{figure.4.7}}
\@writefile{lof}{\contentsline {subfigure}{\numberline{(a)}{\ignorespaces {Datos de cliente original.}}}{36}{figure.4.7}}
\@writefile{lof}{\contentsline {subfigure}{\numberline{(b)}{\ignorespaces {Datos de mensajes de ROS.}}}{36}{figure.4.7}}
\newlabel{lab_high_range_peak}{{4.7}{36}{Modo de \textit {peak} más lejano}{figure.4.7}{}}
\@writefile{lof}{\contentsline {figure}{\numberline {4.8}{\ignorespaces Modo de todos los \textit  {peaks}.}}{36}{figure.4.8}}
\@writefile{lof}{\contentsline {subfigure}{\numberline{(a)}{\ignorespaces {Datos de cliente original.}}}{36}{figure.4.8}}
\@writefile{lof}{\contentsline {subfigure}{\numberline{(b)}{\ignorespaces {Datos de mensajes de ROS.}}}{36}{figure.4.8}}
\newlabel{lab_all_peaks}{{4.8}{36}{Modo de todos los \textit {peaks}}{figure.4.8}{}}
\citation{martinez2012}
\@writefile{lof}{\contentsline {figure}{\numberline {4.9}{\ignorespaces Modo de espectro en frecuencia.}}{37}{figure.4.9}}
\@writefile{lof}{\contentsline {subfigure}{\numberline{(a)}{\ignorespaces {Datos de cliente original.}}}{37}{figure.4.9}}
\@writefile{lof}{\contentsline {subfigure}{\numberline{(b)}{\ignorespaces {Datos de mensajes de ROS.}}}{37}{figure.4.9}}
\newlabel{lab_frequency_spectrum}{{4.9}{37}{Modo de espectro en frecuencia}{figure.4.9}{}}
\@writefile{toc}{\contentsline {section}{\numberline {4.4}Prueba en terreno}{37}{section.4.4}}
\@writefile{lof}{\contentsline {figure}{\numberline {4.10}{\ignorespaces Ubicaci\IeC {\'o}n del lugar de pruebas. Los puntos en rojo muestran los lugares donde se ubic\IeC {\'o} el radar para hacer las mediciones. Fuente: Google Maps.}}{38}{figure.4.10}}
\newlabel{pohiggins}{{4.10}{38}{Ubicación del lugar de pruebas. Los puntos en rojo muestran los lugares donde se ubicó el radar para hacer las mediciones. Fuente: Google Maps}{figure.4.10}{}}
\@writefile{lof}{\contentsline {figure}{\numberline {4.11}{\ignorespaces Configuraci\IeC {\'o}n del sistema utilizada en las pruebas.}}{38}{figure.4.11}}
\newlabel{radar_husky}{{4.11}{38}{Configuración del sistema utilizada en las pruebas}{figure.4.11}{}}
\citation{martinez2012}
\@writefile{toc}{\contentsline {subsection}{\numberline {4.4.1}Nubes de puntos}{39}{subsection.4.4.1}}
\@writefile{lof}{\contentsline {figure}{\numberline {4.12}{\ignorespaces Modo de \textit  {peak} m\IeC {\'a}s potente.}}{40}{figure.4.12}}
\newlabel{po_highest_intensity_peak}{{4.12}{40}{Modo de \textit {peak} más potente}{figure.4.12}{}}
\@writefile{lof}{\contentsline {figure}{\numberline {4.13}{\ignorespaces Modo de \textit  {peak} m\IeC {\'a}s cercano.}}{40}{figure.4.13}}
\newlabel{po_low_range_peak}{{4.13}{40}{Modo de \textit {peak} más cercano}{figure.4.13}{}}
\@writefile{lof}{\contentsline {figure}{\numberline {4.14}{\ignorespaces Modo de \textit  {peak} m\IeC {\'a}s lejano.}}{40}{figure.4.14}}
\newlabel{po_high_range_peak}{{4.14}{40}{Modo de \textit {peak} más lejano}{figure.4.14}{}}
\@writefile{lof}{\contentsline {figure}{\numberline {4.15}{\ignorespaces Modo de todos los \textit  {peaks}.}}{40}{figure.4.15}}
\newlabel{po_all_peaks}{{4.15}{40}{Modo de todos los \textit {peaks}}{figure.4.15}{}}
\@writefile{toc}{\contentsline {subsection}{\numberline {4.4.2}Detecci\IeC {\'o}n de obst\IeC {\'a}culos}{40}{subsection.4.4.2}}
\citation{ma2012}
\@writefile{lof}{\contentsline {figure}{\numberline {4.16}{\ignorespaces Vista de espectro en frecuencia. Las medidas en negro y blanco son de bajas y altas potencias recibidas respectivamente.}}{41}{figure.4.16}}
\newlabel{po_cfar_in}{{4.16}{41}{Vista de espectro en frecuencia. Las medidas en negro y blanco son de bajas y altas potencias recibidas respectivamente}{figure.4.16}{}}
\@writefile{lof}{\contentsline {figure}{\numberline {4.17}{\ignorespaces Obst\IeC {\'a}culos detectados por el procesador CFAR tridimensional. Las medidas en rojo y blanco son las detecciones de menor y mayor $P_D^{CFAR}$ respectivamente.}}{42}{figure.4.17}}
\newlabel{po_cfar3d_out}{{4.17}{42}{Obstáculos detectados por el procesador CFAR tridimensional. Las medidas en rojo y blanco son las detecciones de menor y mayor $P_D^{CFAR}$ respectivamente}{figure.4.17}{}}
\@writefile{lof}{\contentsline {figure}{\numberline {4.18}{\ignorespaces Obst\IeC {\'a}culos detectados por el procesador CFAR unidimensional. Las medidas en rojo y blanco son las detecciones de menor y mayor $P_D^{CFAR}$ respectivamente.}}{43}{figure.4.18}}
\newlabel{po_cfar1d_out}{{4.18}{43}{Obstáculos detectados por el procesador CFAR unidimensional. Las medidas en rojo y blanco son las detecciones de menor y mayor $P_D^{CFAR}$ respectivamente}{figure.4.18}{}}
\@writefile{toc}{\contentsline {subsection}{\numberline {4.4.3}Comparaci\IeC {\'o}n de fuentes de datos}{44}{subsection.4.4.3}}
\@writefile{lof}{\contentsline {figure}{\numberline {4.19}{\ignorespaces Medidas obtenidas por el sensor l\IeC {\'a}ser en conjunto con las medidas del radar. Las primeras son de color rojo, mientras que las segundas son en tonos de blanco y negro.}}{45}{figure.4.19}}
\newlabel{po_laser}{{4.19}{45}{Medidas obtenidas por el sensor láser en conjunto con las medidas del radar. Las primeras son de color rojo, mientras que las segundas son en tonos de blanco y negro}{figure.4.19}{}}
\@writefile{lof}{\contentsline {figure}{\numberline {4.20}{\ignorespaces Mediciones unificadas entre dos puntos. Los tonos de blanco y negro corresponden a bajas y altas intensidades respectivamente. Los c\IeC {\'\i }rculos en negro corresponden a cruces entre dos pares de reflexiones m\IeC {\'u}ltiples. Comparado con la Figura \ref  {po_cfar_in}, en esta Figura la c\IeC {\'a}mara se ubica a la derecha y mira hacia la izquierda.}}{46}{figure.4.20}}
\newlabel{po_data_fusion}{{4.20}{46}{Mediciones unificadas entre dos puntos. Los tonos de blanco y negro corresponden a bajas y altas intensidades respectivamente. Los círculos en negro corresponden a cruces entre dos pares de reflexiones múltiples. Comparado con la Figura \ref {po_cfar_in}, en esta Figura la cámara se ubica a la derecha y mira hacia la izquierda}{figure.4.20}{}}
\citation{martinez2012}
\citation{chin2009}
\@writefile{toc}{\contentsline {chapter}{\numberline {5}Conclusiones}{47}{chapter.5}}
\@writefile{lof}{\addvspace {10\p@ }}
\@writefile{lot}{\addvspace {10\p@ }}
\citation{ma}
\@writefile{toc}{\contentsline {section}{\numberline {5.1}Trabajos futuros}{48}{section.5.1}}
\bibdata{./bib/referencias}
\bibcite{martinez2012}{1}
\bibcite{ma}{2}
\bibcite{amtc}{3}
\bibcite{ros:intro}{4}
\bibcite{ma2012}{5}
\bibcite{ros:rpc}{6}
\bibcite{gof1995}{7}
\bibcite{ros:rviz}{8}
\bibcite{ros:rqt_plot}{9}
\bibcite{ogata2001}{10}
\bibcite{chin2009}{11}
\bibcite{tkinter}{12}
\bibcite{wxpython}{13}
\bibcite{ros:kinect}{14}
\bibcite{Rusu_ICRA2011_PCL}{15}
\select@language{spanish}
\@writefile{toc}{\select@language{spanish}}
\@writefile{lof}{\select@language{spanish}}
\@writefile{lot}{\select@language{spanish}}
\select@language{spanish}
\@writefile{toc}{\select@language{spanish}}
\@writefile{lof}{\select@language{spanish}}
\@writefile{lot}{\select@language{spanish}}
\bibstyle{babunsrt}
\select@language{spanish}
\@writefile{toc}{\select@language{spanish}}
\@writefile{lof}{\select@language{spanish}}
\@writefile{lot}{\select@language{spanish}}
\select@language{spanish}
\@writefile{toc}{\select@language{spanish}}
\@writefile{lof}{\select@language{spanish}}
\@writefile{lot}{\select@language{spanish}}
\@writefile{toc}{\contentsline {chapter}{Bibliograf\IeC {\'\i }a}{50}{chapter*.7}}
\@writefile{toc}{\contentsline {chapter}{Anexos}{51}{chapter*.8}}
\@writefile{toc}{\contentsline {section}{A. Interfaz a ROS del cliente implementado}{51}{section*.9}}
\citation{martinez2012}
\citation{martinez2012}
\citation{martinez2012}
\@writefile{toc}{\contentsline {section}{B. Diferencias encontradas entre \cite  {martinez2012} y el verdadero protocolo del radar}{53}{section*.13}}
