<?xml version="1.0" encoding="UTF-8" standalone="no"?>
<!-- Created with matplotlib (http://matplotlib.sourceforge.net/) -->

<svg
   xmlns:dc="http://purl.org/dc/elements/1.1/"
   xmlns:cc="http://creativecommons.org/ns#"
   xmlns:rdf="http://www.w3.org/1999/02/22-rdf-syntax-ns#"
   xmlns:svg="http://www.w3.org/2000/svg"
   xmlns="http://www.w3.org/2000/svg"
   xmlns:xlink="http://www.w3.org/1999/xlink"
   xmlns:sodipodi="http://sodipodi.sourceforge.net/DTD/sodipodi-0.dtd"
   xmlns:inkscape="http://www.inkscape.org/namespaces/inkscape"
   height="483.75"
   version="1.1"
   viewBox="0 0 533.5 387"
   width="666.875"
   id="svg2"
   inkscape:version="0.48.3.1 r9886"
   sodipodi:docname="scanner_360.svg">
  <metadata
     id="metadata458">
    <rdf:RDF>
      <cc:Work
         rdf:about="">
        <dc:format>image/svg+xml</dc:format>
        <dc:type
           rdf:resource="http://purl.org/dc/dcmitype/StillImage" />
      </cc:Work>
    </rdf:RDF>
  </metadata>
  <sodipodi:namedview
     pagecolor="#ffffff"
     bordercolor="#666666"
     borderopacity="1"
     objecttolerance="10"
     gridtolerance="10"
     guidetolerance="10"
     inkscape:pageopacity="0"
     inkscape:pageshadow="2"
     inkscape:window-width="1366"
     inkscape:window-height="717"
     id="namedview456"
     showgrid="false"
     inkscape:zoom="1.1350741"
     inkscape:cx="343.125"
     inkscape:cy="251.875"
     inkscape:window-x="0"
     inkscape:window-y="0"
     inkscape:window-maximized="1"
     inkscape:current-layer="svg2"
     fit-margin-top="0"
     fit-margin-left="0"
     fit-margin-right="0"
     fit-margin-bottom="0" />
  <defs
     id="defs4"
     style="stroke-linecap:square;stroke-linejoin:round">
    <style
       type="text/css"
       id="style6">
*{stroke-linecap:square;stroke-linejoin:round;}
  </style>
  </defs>
  <g
     id="figure_1"
     style="stroke-linecap:square;stroke-linejoin:round"
     transform="translate(16,0)">
    <g
       id="patch_1"
       style="stroke-linecap:square;stroke-linejoin:round">
      <path
         d="m 0,371.7 517.5,0 L 517.5,0 0,0 z"
         style="fill:#ffffff;stroke-linecap:square;stroke-linejoin:round"
         id="path10"
         inkscape:connector-curvature="0" />
    </g>
    <g
       id="axes_1"
       style="stroke-linecap:square;stroke-linejoin:round">
      <g
         id="patch_2"
         style="stroke-linecap:square;stroke-linejoin:round">
        <path
           d="m 34.5381,345.74 461.5289,0 0,-328.28 -461.5289,0 z"
           style="fill:#ffffff;stroke-linecap:square;stroke-linejoin:round"
           id="path14"
           inkscape:connector-curvature="0" />
      </g>
      <g
         id="line2d_1"
         style="stroke-linecap:square;stroke-linejoin:round">
        <path
           clip-path="url(#pddf12f07a6)"
           d="m 81.3027,231.44 1.4198,-3.007 0.3275,-2.857 1.4422,-3.458 0.673,-3.458 1.4232,-3.007 3.157,-9.772 1.245,-3.007 0.2222,-3.157 1.3829,-3.609 1.5732,-5.713 1.5965,-3.458 0.5451,-3.608 1.5632,-3.007 0.4276,-3.007 1.5497,-3.458 1.3452,-6.314 1.519,-2.707 0.622,-3.157 1.858,-3.458 0.208,-3.007 0.704,-2.706 1.446,-3.759 0.698,-3.157 1.604,-2.706 0.5,-3.007 1.766,-3.759 0.372,-3.157 1.423,-2.706 0.295,-3.308 1.426,-3.458 0.796,-3.007 1.321,-2.555 0.71,-3.609 1.079,-3.157 1.281,-3.007 0.536,-3.157 1.939,-4.06 0.009,-3.3071 1.557,-2.7062 0.688,-3.007 1.284,-3.9089 1.521,-5.7132 1.377,-3.4579 0.709,-3.458 1.353,-3.3076 0.853,-2.7062 0.52,-3.3076 1.439,-3.7587 1.331,-3.0069 0.729,-2.7062 0.727,-4.0594 1.468,-3.3076 0.671,-2.5558 1.146,-2.8566 0.651,-3.7587 1.398,-3.3076 0.866,-2.7062 1.061,297.2334 1.161,-3.758 0.58,-3.007 1.267,-2.406 0.653,-3.157 1.553,-3.759 0.591,-2.706 1.361,-2.706 0.747,-3.458 0.589,-3.458 1.469,-3.007 0.67,-2.706 1.952,-3.007 0.192,-3.608 0.774,-2.857 1.309,-2.706 0.734,-3.308 1.373,-3.458 0.871,-2.706 1.549,-2.706 0.119,-3.759 1.697,-3.458 0.386,-2.556 0.876,-3.007 1.303,-3.608 0.59,-3.308 1.59,-3.157 0.515,-3.307 1.517,-3.458 0.601,-2.707 0.781,-2.706 1.322,-3.307 0.79,-3.759 1.397,-3.007 0.619,-2.706 1.429,-3.458 0.996,-3.608 1.064,-2.707 1.565,-3.157 0.021,-3.608 1.303,-3.158 0.424,-2.856 1.38,-3.458 2.58,-3.458 0.012,-3.157 0.124,-2.707 1.432,-3.157 0.287,-3.307 1.585,-3.158 0.944,-2.856 1.316,-3.458 0.137,-3.458 1.522,-3.007 0.54,-2.857 1.439,-3.307 0.734,-3.308 1.468,-2.856 0.388,-2.857 1.354,-3.759 1.488,-3.007 0.7,-2.706 1.449,-6.916 1.315,-2.706 2.585,-6.314 0.234,-3.308 2.149,-3.308 1.294,-2.706 0.019,-3.157 0.413,-3.308 1.669,-3.157 0.296,-3.007 1.43,-3.909 0.702,-3.1571 1.422,-2.7062 0.314,-3.007 1.41,-3.9089 1.6,-3.3077 0.14,-2.4055 1.424,-3.3076 0.681,-3.909 1.517,-3.1572 0.859,-2.8566 1.242,-3.6083 1.279,-6.3145 1.404,-3.0069 0.684,-4.0594 1.403,-3.0069 0.68,-2.7062 1.432,-3.1573 0.382,-3.7586 1.689,-3.1573 0.471,-2.7062 1.273,297.2334 1.4,-3.608 1.389,-5.413 1.252,-3.458 1.682,-6.464 1.85,-2.556 0.225,-3.909 1.794,-3.308 0.559,-2.706 0.425,-2.706 1.942,-3.759 0.191,-3.007 1.462,-2.856 1.362,-6.465 1.912,-2.857 0.157,-2.706 1.457,-3.157 0.646,-3.759 1.53,-3.007 0.689,-2.556 0.618,-3.458 1.4,-3.608 0.709,-3.308 1.448,-3.157 1.009,-3.157 1.317,-3.157 0.386,-3.007 1.432,-2.707 0.676,-3.608 2.109,-6.314 0.686,-3.007 1.517,-3.759 1.251,-6.014 1.442,-3.307 0.736,-3.609 1.363,-3.157 0.729,-2.857 0.592,-3.157 1.451,-3.608 0.695,-3.007 1.671,-2.857 0.384,-3.758 1.442,-3.458 0.718,-2.706 1.404,-3.458 0.678,-3.609 0.675,-2.856 1.485,-2.556 0.72,-3.157 1.329,-3.458 0.408,-3.007 1.332,-2.706 0.8,-3.158 1.557,-3.608 0.459,-2.857 1.379,-2.555 0.421,-3.308 1.473,-3.608 0.995,-3.158 1.155,-2.556 0.636,-3.157 3.484,-9.622 0.645,-3.307 1.17,-3.158 0.635,-3.007 1.601,-3.458 0.457,-3.7583 1.736,-3.0069 0.955,-2.7062 0.234,-3.1573 2.558,-6.7655 0.901,-2.7063 1.285,-3.3076 0.009,-3.6083 2.061,-3.1572 0.033,-2.7062 2.146,-3.6084 0.01,-3.4579 1.125,-2.8566 1.057,-3.0069 0.625,-3.909 1.476,-3.1572 1.053,-2.7063 1.003,-3.1572 0.376,-3.7587 1.453,-3.3076 2.391,-2.7062 0.175,297.2338 0.226,-3.608 2.57,-5.413 0.187,-3.458 1.475,-3.308 0.63,-2.856 1.498,-2.857 0.853,-3.758 0.435,-3.007 1.436,-2.556 0.772,-2.706 1.316,-3.909 0.672,-2.857 0.978,-2.706 1.241,-2.857 0.615,-3.758 1.429,-3.007 0.654,-2.406 1.417,-3.007 0.412,-4.059 1.359,-3.007 0.703,-2.405 1.938,-3.158 0.252,-3.458 1.428,-3.307 0.257,-3.308 1.438,-3.307 0.591,-3.308 1.649,-3.007 0.554,-2.556 1.4,-3.307 0.692,-3.609 1.34,-3.007 0.305,-3.307 1.496,-3.609 0.813,-3.007 1.291,-3.006 0.359,-3.308 1.379,-3.458 0.696,-3.157 1.504,-2.857 1.356,-6.916 1.473,-3.157 0.724,-2.857 1.486,-3.608 0.555,-3.157 1.435,-2.857 0.622,-3.458 1.54,-3.458 2.017,-5.713 1.33,-6.765 1.436,-3.158 0.802,-2.555 1.303,-3.308 0.489,-3.458 1.224,-2.857 0.817,-2.706 1.268,-3.307 0.682,-3.458 1.473,-3.007 0.248,-2.707 1.884,-3.157 0.399,-3.458 1.426,-3.007 0.597,-2.706 1.221,-3.307 0.498,-3.458 1.527,-2.857 1.674,-3.458 0.01,-3.759 1.88,-3.0065 0.174,-2.5559 0.779,-3.4579 2.07,-3.7587 0.02,-3.1572 1.463,-2.7063 0.821,-3.3076 1.17,-3.9089 0.701,-3.007 2.208,-3.0069 0.011,-3.7586 0.54,-3.3076 1.435,-2.8566 0.694,-3.3076 1.423,-3.909 0.679,-3.1573 1.53,-2.2552 0.39,-3.4579 1.792,-3.6083 0.167,-3.1573 1.696,-3.0069 1.193,297.0832 0.145,-3.308 1.383,-2.706 1.033,-3.007 1.05,-3.458 0.689,-3.007 1.519,-2.706 0.2,-3.157 1.449,-3.759 0.656,-2.706 1.727,-2.706 0.367,-3.157 1.593,-3.609 0.231,-3.007 3.212,-5.863 0.397,-3.608 0.889,-3.007 0.533,-2.556 1.543,-3.157 0.537,-3.759 1.45,-3.007 0.381,-2.556 1.396,-3.157 0.689,-3.458 1.617,-3.308 0.402,-3.307 1.942,-3.158 0.341,-3.307 0.716,-2.706 1.25,-3.308 0.685,-3.759 1.654,-3.157 1.036,-2.856 0.809,-3.308 0.302,-3.608 1.423,-3.158 0.823,-2.706 1.275,-3.458 1.067,-3.608 1.405,-3.007 0.425,-2.857 1.753,-6.916 1.406,-2.706 1.008,-3.307 2.244,-6.465 0.826,-3.157 1.447,-3.308 0.011,-3.458 2.159,-3.007 0.015,-2.405 2.171,-3.308 0.012,-3.608 1.1,-3.007 0.621,-2.556 1.406,-3.308 1.384,-6.465 1.45,-2.556 0.66,-3.457 2.211,-3.458 0.011,-2.857 1.536,-3.007 0.494,-3.458 0.899,-3.157 1.346,-3.007 0.531,-3.007 0,0"
           style="fill:none;stroke:#ff0000;stroke-linecap:square;stroke-linejoin:round"
           id="path17"
           inkscape:connector-curvature="0" />
      </g>
      <g
         id="matplotlib.axis_1"
         style="stroke-linecap:square;stroke-linejoin:round">
        <g
           id="xtick_1"
           style="stroke-linecap:square;stroke-linejoin:round">
          <g
             id="line2d_2"
             style="stroke-linecap:square;stroke-linejoin:round">
            <path
               clip-path="url(#pddf12f07a6)"
               d="m 60.8997,345.74 0,-328.28"
               style="fill:none;stroke:#808080;stroke-width:0.5;stroke-linecap:butt;stroke-linejoin:round;stroke-dasharray:1, 3;stroke-dashoffset:0"
               id="path22"
               inkscape:connector-curvature="0" />
          </g>
          <g
             id="line2d_3"
             style="stroke-linecap:square;stroke-linejoin:round">
            <defs
               id="defs25">
              <path
                 d="M 0,0 0,-4"
                 id="m0012dd4eef"
                 style="stroke:#000000;stroke-width:0.5;stroke-linecap:butt;stroke-linejoin:round"
                 inkscape:connector-curvature="0" />
            </defs>
            <g
               id="g28"
               style="stroke-linecap:square;stroke-linejoin:round">
              <use
                 style="stroke:#000000;stroke-width:0.5;stroke-linecap:butt;stroke-linejoin:round"
                 x="60.899746"
                 xlink:href="#m0012dd4eef"
                 y="345.73999"
                 id="use30"
                 width="517"
                 height="371" />
            </g>
          </g>
          <g
             id="line2d_4"
             style="stroke-linecap:square;stroke-linejoin:round">
            <defs
               id="defs33">
              <path
                 d="M 0,0 0,4"
                 id="m476344969c"
                 style="stroke:#000000;stroke-width:0.5;stroke-linecap:butt;stroke-linejoin:round"
                 inkscape:connector-curvature="0" />
            </defs>
            <g
               id="g36"
               style="stroke-linecap:square;stroke-linejoin:round">
              <use
                 style="stroke:#000000;stroke-width:0.5;stroke-linecap:butt;stroke-linejoin:round"
                 x="60.899746"
                 xlink:href="#m476344969c"
                 y="17.459999"
                 id="use38"
                 width="517"
                 height="371" />
            </g>
          </g>
          <g
             id="text_1"
             style="stroke-linecap:square;stroke-linejoin:round">
            <!-- 0 -->
            <defs
               id="defs41">
              <path
                 d="m 31.7812,66.4062 q -7.6093,0 -11.4531,-7.5 Q 16.5,51.4219 16.5,36.375 q 0,-14.9844 3.8281,-22.4844 3.8438,-7.49998 11.4531,-7.49998 7.6719,0 11.5,7.49998 3.8438,7.5 3.8438,22.4844 0,15.0469 -3.8438,22.5312 -3.8281,7.5 -11.5,7.5 m 0,7.8126 q 12.2657,0 18.7344,-9.7032 6.4688,-9.6875 6.4688,-28.1406 0,-18.4062 -6.4688,-28.10938 -6.4687,-9.6875 -18.7344,-9.6875 -12.25,0 -18.7187,9.6875 -6.46875,9.70318 -6.46875,28.10938 0,18.4531 6.46875,28.1406 6.4687,9.7032 18.7187,9.7032"
                 id="DejaVuSans-30"
                 inkscape:connector-curvature="0"
                 style="stroke-linecap:square;stroke-linejoin:round" />
            </defs>
            <g
               transform="matrix(0.12,0,0,-0.12,57.876307,358.64625)"
               id="g44"
               style="stroke-linecap:square;stroke-linejoin:round">
              <use
                 xlink:href="#DejaVuSans-30"
                 id="use46"
                 style="stroke-linecap:square;stroke-linejoin:round"
                 x="0"
                 y="0"
                 width="517"
                 height="371" />
            </g>
          </g>
        </g>
        <g
           id="xtick_2"
           style="stroke-linecap:square;stroke-linejoin:round">
          <g
             id="line2d_5"
             style="stroke-linecap:square;stroke-linejoin:round">
            <path
               clip-path="url(#pddf12f07a6)"
               d="m 153.206,345.74 0,-328.28"
               style="fill:none;stroke:#808080;stroke-width:0.5;stroke-linecap:butt;stroke-linejoin:round;stroke-dasharray:1, 3;stroke-dashoffset:0"
               id="path50"
               inkscape:connector-curvature="0" />
          </g>
          <g
             id="line2d_6"
             style="stroke-linecap:square;stroke-linejoin:round">
            <g
               id="g53"
               style="stroke-linecap:square;stroke-linejoin:round">
              <use
                 style="stroke:#000000;stroke-width:0.5;stroke-linecap:butt;stroke-linejoin:round"
                 x="153.20558"
                 xlink:href="#m0012dd4eef"
                 y="345.73999"
                 id="use55"
                 width="517"
                 height="371" />
            </g>
          </g>
          <g
             id="line2d_7"
             style="stroke-linecap:square;stroke-linejoin:round">
            <g
               id="g58"
               style="stroke-linecap:square;stroke-linejoin:round">
              <use
                 style="stroke:#000000;stroke-width:0.5;stroke-linecap:butt;stroke-linejoin:round"
                 x="153.20558"
                 xlink:href="#m476344969c"
                 y="17.459999"
                 id="use60"
                 width="517"
                 height="371" />
            </g>
          </g>
          <g
             id="text_2"
             style="stroke-linecap:square;stroke-linejoin:round">
            <!-- 1 -->
            <defs
               id="defs63">
              <path
                 d="m 12.4062,8.29688 16.1094,0 0,55.62502 -17.5312,-3.5157 0,8.9844 17.4375,3.5156 9.8593,0 0,-64.60932 16.1094,0 0,-8.29688 -41.9844,0 z"
                 id="DejaVuSans-31"
                 inkscape:connector-curvature="0"
                 style="stroke-linecap:square;stroke-linejoin:round" />
            </defs>
            <g
               transform="matrix(0.12,0,0,-0.12,150.60121,358.48875)"
               id="g66"
               style="stroke-linecap:square;stroke-linejoin:round">
              <use
                 xlink:href="#DejaVuSans-31"
                 id="use68"
                 style="stroke-linecap:square;stroke-linejoin:round"
                 x="0"
                 y="0"
                 width="517"
                 height="371" />
            </g>
          </g>
        </g>
        <g
           id="xtick_3"
           style="stroke-linecap:square;stroke-linejoin:round">
          <g
             id="line2d_8"
             style="stroke-linecap:square;stroke-linejoin:round">
            <path
               clip-path="url(#pddf12f07a6)"
               d="m 245.511,345.74 0,-328.28"
               style="fill:none;stroke:#808080;stroke-width:0.5;stroke-linecap:butt;stroke-linejoin:round;stroke-dasharray:1, 3;stroke-dashoffset:0"
               id="path72"
               inkscape:connector-curvature="0" />
          </g>
          <g
             id="line2d_9"
             style="stroke-linecap:square;stroke-linejoin:round">
            <g
               id="g75"
               style="stroke-linecap:square;stroke-linejoin:round">
              <use
                 style="stroke:#000000;stroke-width:0.5;stroke-linecap:butt;stroke-linejoin:round"
                 x="245.51143"
                 xlink:href="#m0012dd4eef"
                 y="345.73999"
                 id="use77"
                 width="517"
                 height="371" />
            </g>
          </g>
          <g
             id="line2d_10"
             style="stroke-linecap:square;stroke-linejoin:round">
            <g
               id="g80"
               style="stroke-linecap:square;stroke-linejoin:round">
              <use
                 style="stroke:#000000;stroke-width:0.5;stroke-linecap:butt;stroke-linejoin:round"
                 x="245.51143"
                 xlink:href="#m476344969c"
                 y="17.459999"
                 id="use82"
                 width="517"
                 height="371" />
            </g>
          </g>
          <g
             id="text_3"
             style="stroke-linecap:square;stroke-linejoin:round">
            <!-- 2 -->
            <defs
               id="defs85">
              <path
                 d="m 19.1875,8.29688 34.4219,0 0,-8.29688 -46.28128,0 0,8.29688 Q 12.9375,14.1094 22.625,23.8906 q 9.7031,9.7969 12.1875,12.6406 4.7344,5.3126 6.6094,9 1.8906,3.6876 1.8906,7.25 0,5.8126 -4.0781,9.4688 -4.0782,3.6719 -10.625,3.6719 -4.6406,0 -9.7969,-1.6094 -5.1406,-1.6094 -11,-4.8906 l 0,9.9687 q 5.9531,2.3906 11.125,3.6094 5.1875,1.2188 9.4844,1.2188 11.3281,0 18.0625,-5.6719 6.7344,-5.6563 6.7344,-15.125 0,-4.5 -1.6876,-8.5313 Q 49.8594,40.875 45.4062,35.4062 44.1875,33.9844 37.6406,27.2188 31.1094,20.4531 19.1875,8.29688"
                 id="DejaVuSans-32"
                 inkscape:connector-curvature="0"
                 style="stroke-linecap:square;stroke-linejoin:round" />
            </defs>
            <g
               transform="matrix(0.12,0,0,-0.12,242.73456,358.64625)"
               id="g88"
               style="stroke-linecap:square;stroke-linejoin:round">
              <use
                 xlink:href="#DejaVuSans-32"
                 id="use90"
                 style="stroke-linecap:square;stroke-linejoin:round"
                 x="0"
                 y="0"
                 width="517"
                 height="371" />
            </g>
          </g>
        </g>
        <g
           id="xtick_4"
           style="stroke-linecap:square;stroke-linejoin:round">
          <g
             id="line2d_11"
             style="stroke-linecap:square;stroke-linejoin:round">
            <path
               clip-path="url(#pddf12f07a6)"
               d="m 337.817,345.74 0,-328.28"
               style="fill:none;stroke:#808080;stroke-width:0.5;stroke-linecap:butt;stroke-linejoin:round;stroke-dasharray:1, 3;stroke-dashoffset:0"
               id="path94"
               inkscape:connector-curvature="0" />
          </g>
          <g
             id="line2d_12"
             style="stroke-linecap:square;stroke-linejoin:round">
            <g
               id="g97"
               style="stroke-linecap:square;stroke-linejoin:round">
              <use
                 style="stroke:#000000;stroke-width:0.5;stroke-linecap:butt;stroke-linejoin:round"
                 x="337.81729"
                 xlink:href="#m0012dd4eef"
                 y="345.73999"
                 id="use99"
                 width="517"
                 height="371" />
            </g>
          </g>
          <g
             id="line2d_13"
             style="stroke-linecap:square;stroke-linejoin:round">
            <g
               id="g102"
               style="stroke-linecap:square;stroke-linejoin:round">
              <use
                 style="stroke:#000000;stroke-width:0.5;stroke-linecap:butt;stroke-linejoin:round"
                 x="337.81729"
                 xlink:href="#m476344969c"
                 y="17.459999"
                 id="use104"
                 width="517"
                 height="371" />
            </g>
          </g>
          <g
             id="text_4"
             style="stroke-linecap:square;stroke-linejoin:round">
            <!-- 3 -->
            <defs
               id="defs107">
              <path
                 d="M 40.5781,39.3125 Q 47.6562,37.7969 51.625,33 q 3.9844,-4.7812 3.9844,-11.8125 0,-10.7813 -7.4219,-16.70312 -7.4219,-5.90626 -21.0937,-5.90626 -4.5782,0 -9.4376,0.906255 Q 12.7969,0.390625 7.625,2.20312 l 0,9.51568 q 4.0938,-2.39068 8.9688,-3.60942 4.8906,-1.21876 10.2187,-1.21876 9.2656,0 14.125,3.65628 4.8594,3.6562 4.8594,10.6406 0,6.4531 -4.5157,10.0781 -4.5156,3.6406 -12.5624,3.6406 l -8.5,0 0,8.1094 8.8906,0 q 7.2656,0 11.125,2.9063 3.8594,2.9062 3.8594,8.375 0,5.6093 -3.9844,8.6093 -3.9688,3.0157 -11.3906,3.0157 -4.0626,0 -8.7032,-0.8907 -4.6406,-0.875 -10.2031,-2.7187 l 0,8.7813 q 5.625,1.5624 10.5313,2.3437 4.9062,0.7813 9.25,0.7813 11.2343,0 17.7656,-5.1094 6.5468,-5.0938 6.5468,-13.7813 0,-6.0625 -3.4687,-10.2343 -3.4687,-4.1719 -9.8594,-5.7813"
                 id="DejaVuSans-33"
                 inkscape:connector-curvature="0"
                 style="stroke-linecap:square;stroke-linejoin:round" />
            </defs>
            <g
               transform="matrix(0.12,0,0,-0.12,334.93821,358.64625)"
               id="g110"
               style="stroke-linecap:square;stroke-linejoin:round">
              <use
                 xlink:href="#DejaVuSans-33"
                 id="use112"
                 style="stroke-linecap:square;stroke-linejoin:round"
                 x="0"
                 y="0"
                 width="517"
                 height="371" />
            </g>
          </g>
        </g>
        <g
           id="xtick_5"
           style="stroke-linecap:square;stroke-linejoin:round">
          <g
             id="line2d_14"
             style="stroke-linecap:square;stroke-linejoin:round">
            <path
               clip-path="url(#pddf12f07a6)"
               d="m 430.123,345.74 0,-328.28"
               style="fill:none;stroke:#808080;stroke-width:0.5;stroke-linecap:butt;stroke-linejoin:round;stroke-dasharray:1, 3;stroke-dashoffset:0"
               id="path116"
               inkscape:connector-curvature="0" />
          </g>
          <g
             id="line2d_15"
             style="stroke-linecap:square;stroke-linejoin:round">
            <g
               id="g119"
               style="stroke-linecap:square;stroke-linejoin:round">
              <use
                 style="stroke:#000000;stroke-width:0.5;stroke-linecap:butt;stroke-linejoin:round"
                 x="430.12311"
                 xlink:href="#m0012dd4eef"
                 y="345.73999"
                 id="use121"
                 width="517"
                 height="371" />
            </g>
          </g>
          <g
             id="line2d_16"
             style="stroke-linecap:square;stroke-linejoin:round">
            <g
               id="g124"
               style="stroke-linecap:square;stroke-linejoin:round">
              <use
                 style="stroke:#000000;stroke-width:0.5;stroke-linecap:butt;stroke-linejoin:round"
                 x="430.12311"
                 xlink:href="#m476344969c"
                 y="17.459999"
                 id="use126"
                 width="517"
                 height="371" />
            </g>
          </g>
          <g
             id="text_5"
             style="stroke-linecap:square;stroke-linejoin:round">
            <!-- 4 -->
            <defs
               id="defs129">
              <path
                 d="m 37.7969,64.3125 -24.9063,-38.9219 24.9063,0 z m -2.5938,8.5937 12.4063,0 0,-47.5156 10.4062,0 0,-8.2031 -10.4062,0 0,-17.1875 -9.8125,0 0,17.1875 -32.90628,0 0,9.5156 z"
                 id="DejaVuSans-34"
                 inkscape:connector-curvature="0"
                 style="stroke-linecap:square;stroke-linejoin:round" />
            </defs>
            <g
               transform="matrix(0.12,0,0,-0.12,426.93562,358.48875)"
               id="g132"
               style="stroke-linecap:square;stroke-linejoin:round">
              <use
                 xlink:href="#DejaVuSans-34"
                 id="use134"
                 style="stroke-linecap:square;stroke-linejoin:round"
                 x="0"
                 y="0"
                 width="517"
                 height="371" />
            </g>
          </g>
        </g>
      </g>
      <g
         id="matplotlib.axis_2"
         style="stroke-linecap:square;stroke-linejoin:round">
        <g
           id="ytick_1"
           style="stroke-linecap:square;stroke-linejoin:round">
          <g
             id="line2d_17"
             style="stroke-linecap:square;stroke-linejoin:round">
            <path
               clip-path="url(#pddf12f07a6)"
               d="m 34.5381,331.269 461.5289,0"
               style="fill:none;stroke:#808080;stroke-width:0.5;stroke-linecap:butt;stroke-linejoin:round;stroke-dasharray:1, 3;stroke-dashoffset:0"
               id="path139"
               inkscape:connector-curvature="0" />
          </g>
          <g
             id="line2d_18"
             style="stroke-linecap:square;stroke-linejoin:round">
            <defs
               id="defs142">
              <path
                 d="M 0,0 4,0"
                 id="me8a85f7bf6"
                 style="stroke:#000000;stroke-width:0.5;stroke-linecap:butt;stroke-linejoin:round"
                 inkscape:connector-curvature="0" />
            </defs>
            <g
               id="g145"
               style="stroke-linecap:square;stroke-linejoin:round">
              <use
                 style="stroke:#000000;stroke-width:0.5;stroke-linecap:butt;stroke-linejoin:round"
                 x="34.538124"
                 xlink:href="#me8a85f7bf6"
                 y="331.26923"
                 id="use147"
                 width="517"
                 height="371" />
            </g>
          </g>
          <g
             id="line2d_19"
             style="stroke-linecap:square;stroke-linejoin:round">
            <defs
               id="defs150">
              <path
                 d="M 0,0 -4,0"
                 id="m1a32005dea"
                 style="stroke:#000000;stroke-width:0.5;stroke-linecap:butt;stroke-linejoin:round"
                 inkscape:connector-curvature="0" />
            </defs>
            <g
               id="g153"
               style="stroke-linecap:square;stroke-linejoin:round">
              <use
                 style="stroke:#000000;stroke-width:0.5;stroke-linecap:butt;stroke-linejoin:round"
                 x="496.06735"
                 xlink:href="#m1a32005dea"
                 y="331.26923"
                 id="use155"
                 width="517"
                 height="371" />
            </g>
          </g>
          <g
             id="text_6"
             style="stroke-linecap:square;stroke-linejoin:round">
            <!-- 0 -->
            <g
               transform="matrix(0.12,0,0,-0.12,24.49125,335.63703)"
               id="g158"
               style="stroke-linecap:square;stroke-linejoin:round">
              <use
                 xlink:href="#DejaVuSans-30"
                 id="use160"
                 style="stroke-linecap:square;stroke-linejoin:round"
                 x="0"
                 y="0"
                 width="517"
                 height="371" />
            </g>
          </g>
        </g>
        <g
           id="ytick_2"
           style="stroke-linecap:square;stroke-linejoin:round">
          <g
             id="line2d_20"
             style="stroke-linecap:square;stroke-linejoin:round">
            <path
               clip-path="url(#pddf12f07a6)"
               d="m 34.5381,289.507 461.5289,0"
               style="fill:none;stroke:#808080;stroke-width:0.5;stroke-linecap:butt;stroke-linejoin:round;stroke-dasharray:1, 3;stroke-dashoffset:0"
               id="path164"
               inkscape:connector-curvature="0" />
          </g>
          <g
             id="line2d_21"
             style="stroke-linecap:square;stroke-linejoin:round">
            <g
               id="g167"
               style="stroke-linecap:square;stroke-linejoin:round">
              <use
                 style="stroke:#000000;stroke-width:0.5;stroke-linecap:butt;stroke-linejoin:round"
                 x="34.538124"
                 xlink:href="#me8a85f7bf6"
                 y="289.5065"
                 id="use169"
                 width="517"
                 height="371" />
            </g>
          </g>
          <g
             id="line2d_22"
             style="stroke-linecap:square;stroke-linejoin:round">
            <g
               id="g172"
               style="stroke-linecap:square;stroke-linejoin:round">
              <use
                 style="stroke:#000000;stroke-width:0.5;stroke-linecap:butt;stroke-linejoin:round"
                 x="496.06735"
                 xlink:href="#m1a32005dea"
                 y="289.5065"
                 id="use174"
                 width="517"
                 height="371" />
            </g>
          </g>
          <g
             id="text_7"
             style="stroke-linecap:square;stroke-linejoin:round">
            <!-- 50 -->
            <defs
               id="defs177">
              <path
                 d="m 10.7969,72.9062 38.7187,0 0,-8.3124 -29.6875,0 0,-17.8594 q 2.1407,0.7344 4.2813,1.0937 2.1562,0.3594 4.3125,0.3594 12.2031,0 19.3281,-6.6875 7.1406,-6.6875 7.1406,-18.1094 0,-11.7656 -7.3281,-18.29685 -7.3281,-6.51563 -20.6563,-6.51563 -4.5937,0 -9.3593,0.781255 -4.75,0.78125 -9.82815,2.343745 l 0,9.92188 q 4.39065,-2.39062 9.07815,-3.5625 4.6875,-1.17188 9.9062,-1.17188 8.4531,0 13.375,4.43748 4.9375,4.4375 4.9375,12.0625 0,7.6094 -4.9375,12.0469 -4.9219,4.4531 -13.375,4.4531 -3.9531,0 -7.8906,-0.875 -3.9219,-0.875 -8.0156,-2.7344 z"
                 id="DejaVuSans-35"
                 inkscape:connector-curvature="0"
                 style="stroke-linecap:square;stroke-linejoin:round" />
            </defs>
            <g
               transform="matrix(0.12,0,0,-0.12,16.99125,293.87432)"
               id="g180"
               style="stroke-linecap:square;stroke-linejoin:round">
              <use
                 xlink:href="#DejaVuSans-35"
                 id="use182"
                 style="stroke-linecap:square;stroke-linejoin:round"
                 x="0"
                 y="0"
                 width="517"
                 height="371" />
              <use
                 x="63.623047"
                 xlink:href="#DejaVuSans-30"
                 id="use184"
                 style="stroke-linecap:square;stroke-linejoin:round"
                 y="0"
                 width="517"
                 height="371" />
            </g>
          </g>
        </g>
        <g
           id="ytick_3"
           style="stroke-linecap:square;stroke-linejoin:round">
          <g
             id="line2d_23"
             style="stroke-linecap:square;stroke-linejoin:round">
            <path
               clip-path="url(#pddf12f07a6)"
               d="m 34.5381,247.744 461.5289,0"
               style="fill:none;stroke:#808080;stroke-width:0.5;stroke-linecap:butt;stroke-linejoin:round;stroke-dasharray:1, 3;stroke-dashoffset:0"
               id="path188"
               inkscape:connector-curvature="0" />
          </g>
          <g
             id="line2d_24"
             style="stroke-linecap:square;stroke-linejoin:round">
            <g
               id="g191"
               style="stroke-linecap:square;stroke-linejoin:round">
              <use
                 style="stroke:#000000;stroke-width:0.5;stroke-linecap:butt;stroke-linejoin:round"
                 x="34.538124"
                 xlink:href="#me8a85f7bf6"
                 y="247.74379"
                 id="use193"
                 width="517"
                 height="371" />
            </g>
          </g>
          <g
             id="line2d_25"
             style="stroke-linecap:square;stroke-linejoin:round">
            <g
               id="g196"
               style="stroke-linecap:square;stroke-linejoin:round">
              <use
                 style="stroke:#000000;stroke-width:0.5;stroke-linecap:butt;stroke-linejoin:round"
                 x="496.06735"
                 xlink:href="#m1a32005dea"
                 y="247.74379"
                 id="use198"
                 width="517"
                 height="371" />
            </g>
          </g>
          <g
             id="text_8"
             style="stroke-linecap:square;stroke-linejoin:round">
            <!-- 100 -->
            <g
               transform="matrix(0.12,0,0,-0.12,9.748125,252.1116)"
               id="g201"
               style="stroke-linecap:square;stroke-linejoin:round">
              <use
                 xlink:href="#DejaVuSans-31"
                 id="use203"
                 style="stroke-linecap:square;stroke-linejoin:round"
                 x="0"
                 y="0"
                 width="517"
                 height="371" />
              <use
                 x="63.623047"
                 xlink:href="#DejaVuSans-30"
                 id="use205"
                 style="stroke-linecap:square;stroke-linejoin:round"
                 y="0"
                 width="517"
                 height="371" />
              <use
                 x="127.24609"
                 xlink:href="#DejaVuSans-30"
                 id="use207"
                 style="stroke-linecap:square;stroke-linejoin:round"
                 y="0"
                 width="517"
                 height="371" />
            </g>
          </g>
        </g>
        <g
           id="ytick_4"
           style="stroke-linecap:square;stroke-linejoin:round">
          <g
             id="line2d_26"
             style="stroke-linecap:square;stroke-linejoin:round">
            <path
               clip-path="url(#pddf12f07a6)"
               d="m 34.5381,205.981 461.5289,0"
               style="fill:none;stroke:#808080;stroke-width:0.5;stroke-linecap:butt;stroke-linejoin:round;stroke-dasharray:1, 3;stroke-dashoffset:0"
               id="path211"
               inkscape:connector-curvature="0" />
          </g>
          <g
             id="line2d_27"
             style="stroke-linecap:square;stroke-linejoin:round">
            <g
               id="g214"
               style="stroke-linecap:square;stroke-linejoin:round">
              <use
                 style="stroke:#000000;stroke-width:0.5;stroke-linecap:butt;stroke-linejoin:round"
                 x="34.538124"
                 xlink:href="#me8a85f7bf6"
                 y="205.98108"
                 id="use216"
                 width="517"
                 height="371" />
            </g>
          </g>
          <g
             id="line2d_28"
             style="stroke-linecap:square;stroke-linejoin:round">
            <g
               id="g219"
               style="stroke-linecap:square;stroke-linejoin:round">
              <use
                 style="stroke:#000000;stroke-width:0.5;stroke-linecap:butt;stroke-linejoin:round"
                 x="496.06735"
                 xlink:href="#m1a32005dea"
                 y="205.98108"
                 id="use221"
                 width="517"
                 height="371" />
            </g>
          </g>
          <g
             id="text_9"
             style="stroke-linecap:square;stroke-linejoin:round">
            <!-- 150 -->
            <g
               transform="matrix(0.12,0,0,-0.12,9.748125,210.34888)"
               id="g224"
               style="stroke-linecap:square;stroke-linejoin:round">
              <use
                 xlink:href="#DejaVuSans-31"
                 id="use226"
                 style="stroke-linecap:square;stroke-linejoin:round"
                 x="0"
                 y="0"
                 width="517"
                 height="371" />
              <use
                 x="63.623047"
                 xlink:href="#DejaVuSans-35"
                 id="use228"
                 style="stroke-linecap:square;stroke-linejoin:round"
                 y="0"
                 width="517"
                 height="371" />
              <use
                 x="127.24609"
                 xlink:href="#DejaVuSans-30"
                 id="use230"
                 style="stroke-linecap:square;stroke-linejoin:round"
                 y="0"
                 width="517"
                 height="371" />
            </g>
          </g>
        </g>
        <g
           id="ytick_5"
           style="stroke-linecap:square;stroke-linejoin:round">
          <g
             id="line2d_29"
             style="stroke-linecap:square;stroke-linejoin:round">
            <path
               clip-path="url(#pddf12f07a6)"
               d="m 34.5381,164.218 461.5289,0"
               style="fill:none;stroke:#808080;stroke-width:0.5;stroke-linecap:butt;stroke-linejoin:round;stroke-dasharray:1, 3;stroke-dashoffset:0"
               id="path234"
               inkscape:connector-curvature="0" />
          </g>
          <g
             id="line2d_30"
             style="stroke-linecap:square;stroke-linejoin:round">
            <g
               id="g237"
               style="stroke-linecap:square;stroke-linejoin:round">
              <use
                 style="stroke:#000000;stroke-width:0.5;stroke-linecap:butt;stroke-linejoin:round"
                 x="34.538124"
                 xlink:href="#me8a85f7bf6"
                 y="164.21835"
                 id="use239"
                 width="517"
                 height="371" />
            </g>
          </g>
          <g
             id="line2d_31"
             style="stroke-linecap:square;stroke-linejoin:round">
            <g
               id="g242"
               style="stroke-linecap:square;stroke-linejoin:round">
              <use
                 style="stroke:#000000;stroke-width:0.5;stroke-linecap:butt;stroke-linejoin:round"
                 x="496.06735"
                 xlink:href="#m1a32005dea"
                 y="164.21835"
                 id="use244"
                 width="517"
                 height="371" />
            </g>
          </g>
          <g
             id="text_10"
             style="stroke-linecap:square;stroke-linejoin:round">
            <!-- 200 -->
            <g
               transform="matrix(0.12,0,0,-0.12,9.309375,168.58617)"
               id="g247"
               style="stroke-linecap:square;stroke-linejoin:round">
              <use
                 xlink:href="#DejaVuSans-32"
                 id="use249"
                 style="stroke-linecap:square;stroke-linejoin:round"
                 x="0"
                 y="0"
                 width="517"
                 height="371" />
              <use
                 x="63.623047"
                 xlink:href="#DejaVuSans-30"
                 id="use251"
                 style="stroke-linecap:square;stroke-linejoin:round"
                 y="0"
                 width="517"
                 height="371" />
              <use
                 x="127.24609"
                 xlink:href="#DejaVuSans-30"
                 id="use253"
                 style="stroke-linecap:square;stroke-linejoin:round"
                 y="0"
                 width="517"
                 height="371" />
            </g>
          </g>
        </g>
        <g
           id="ytick_6"
           style="stroke-linecap:square;stroke-linejoin:round">
          <g
             id="line2d_32"
             style="stroke-linecap:square;stroke-linejoin:round">
            <path
               clip-path="url(#pddf12f07a6)"
               d="m 34.5381,122.456 461.5289,0"
               style="fill:none;stroke:#808080;stroke-width:0.5;stroke-linecap:butt;stroke-linejoin:round;stroke-dasharray:1, 3;stroke-dashoffset:0"
               id="path257"
               inkscape:connector-curvature="0" />
          </g>
          <g
             id="line2d_33"
             style="stroke-linecap:square;stroke-linejoin:round">
            <g
               id="g260"
               style="stroke-linecap:square;stroke-linejoin:round">
              <use
                 style="stroke:#000000;stroke-width:0.5;stroke-linecap:butt;stroke-linejoin:round"
                 x="34.538124"
                 xlink:href="#me8a85f7bf6"
                 y="122.45564"
                 id="use262"
                 width="517"
                 height="371" />
            </g>
          </g>
          <g
             id="line2d_34"
             style="stroke-linecap:square;stroke-linejoin:round">
            <g
               id="g265"
               style="stroke-linecap:square;stroke-linejoin:round">
              <use
                 style="stroke:#000000;stroke-width:0.5;stroke-linecap:butt;stroke-linejoin:round"
                 x="496.06735"
                 xlink:href="#m1a32005dea"
                 y="122.45564"
                 id="use267"
                 width="517"
                 height="371" />
            </g>
          </g>
          <g
             id="text_11"
             style="stroke-linecap:square;stroke-linejoin:round">
            <!-- 250 -->
            <g
               transform="matrix(0.12,0,0,-0.12,9.309375,126.82345)"
               id="g270"
               style="stroke-linecap:square;stroke-linejoin:round">
              <use
                 xlink:href="#DejaVuSans-32"
                 id="use272"
                 style="stroke-linecap:square;stroke-linejoin:round"
                 x="0"
                 y="0"
                 width="517"
                 height="371" />
              <use
                 x="63.623047"
                 xlink:href="#DejaVuSans-35"
                 id="use274"
                 style="stroke-linecap:square;stroke-linejoin:round"
                 y="0"
                 width="517"
                 height="371" />
              <use
                 x="127.24609"
                 xlink:href="#DejaVuSans-30"
                 id="use276"
                 style="stroke-linecap:square;stroke-linejoin:round"
                 y="0"
                 width="517"
                 height="371" />
            </g>
          </g>
        </g>
        <g
           id="ytick_7"
           style="stroke-linecap:square;stroke-linejoin:round">
          <g
             id="line2d_35"
             style="stroke-linecap:square;stroke-linejoin:round">
            <path
               clip-path="url(#pddf12f07a6)"
               d="m 34.5381,80.6929 461.5289,0"
               style="fill:none;stroke:#808080;stroke-width:0.5;stroke-linecap:butt;stroke-linejoin:round;stroke-dasharray:1, 3;stroke-dashoffset:0"
               id="path280"
               inkscape:connector-curvature="0" />
          </g>
          <g
             id="line2d_36"
             style="stroke-linecap:square;stroke-linejoin:round">
            <g
               id="g283"
               style="stroke-linecap:square;stroke-linejoin:round">
              <use
                 style="stroke:#000000;stroke-width:0.5;stroke-linecap:butt;stroke-linejoin:round"
                 x="34.538124"
                 xlink:href="#me8a85f7bf6"
                 y="80.692924"
                 id="use285"
                 width="517"
                 height="371" />
            </g>
          </g>
          <g
             id="line2d_37"
             style="stroke-linecap:square;stroke-linejoin:round">
            <g
               id="g288"
               style="stroke-linecap:square;stroke-linejoin:round">
              <use
                 style="stroke:#000000;stroke-width:0.5;stroke-linecap:butt;stroke-linejoin:round"
                 x="496.06735"
                 xlink:href="#m1a32005dea"
                 y="80.692924"
                 id="use290"
                 width="517"
                 height="371" />
            </g>
          </g>
          <g
             id="text_12"
             style="stroke-linecap:square;stroke-linejoin:round">
            <!-- 300 -->
            <g
               transform="matrix(0.12,0,0,-0.12,9.345,85.060737)"
               id="g293"
               style="stroke-linecap:square;stroke-linejoin:round">
              <use
                 xlink:href="#DejaVuSans-33"
                 id="use295"
                 style="stroke-linecap:square;stroke-linejoin:round"
                 x="0"
                 y="0"
                 width="517"
                 height="371" />
              <use
                 x="63.623047"
                 xlink:href="#DejaVuSans-30"
                 id="use297"
                 style="stroke-linecap:square;stroke-linejoin:round"
                 y="0"
                 width="517"
                 height="371" />
              <use
                 x="127.24609"
                 xlink:href="#DejaVuSans-30"
                 id="use299"
                 style="stroke-linecap:square;stroke-linejoin:round"
                 y="0"
                 width="517"
                 height="371" />
            </g>
          </g>
        </g>
        <g
           id="ytick_8"
           style="stroke-linecap:square;stroke-linejoin:round">
          <g
             id="line2d_38"
             style="stroke-linecap:square;stroke-linejoin:round">
            <path
               clip-path="url(#pddf12f07a6)"
               d="m 34.5381,38.9302 461.5289,0"
               style="fill:none;stroke:#808080;stroke-width:0.5;stroke-linecap:butt;stroke-linejoin:round;stroke-dasharray:1, 3;stroke-dashoffset:0"
               id="path303"
               inkscape:connector-curvature="0" />
          </g>
          <g
             id="line2d_39"
             style="stroke-linecap:square;stroke-linejoin:round">
            <g
               id="g306"
               style="stroke-linecap:square;stroke-linejoin:round">
              <use
                 style="stroke:#000000;stroke-width:0.5;stroke-linecap:butt;stroke-linejoin:round"
                 x="34.538124"
                 xlink:href="#me8a85f7bf6"
                 y="38.93021"
                 id="use308"
                 width="517"
                 height="371" />
            </g>
          </g>
          <g
             id="line2d_40"
             style="stroke-linecap:square;stroke-linejoin:round">
            <g
               id="g311"
               style="stroke-linecap:square;stroke-linejoin:round">
              <use
                 style="stroke:#000000;stroke-width:0.5;stroke-linecap:butt;stroke-linejoin:round"
                 x="496.06735"
                 xlink:href="#m1a32005dea"
                 y="38.93021"
                 id="use313"
                 width="517"
                 height="371" />
            </g>
          </g>
          <g
             id="text_13"
             style="stroke-linecap:square;stroke-linejoin:round">
            <!-- 350 -->
            <g
               transform="matrix(0.12,0,0,-0.12,9.345,43.298021)"
               id="g316"
               style="stroke-linecap:square;stroke-linejoin:round">
              <use
                 xlink:href="#DejaVuSans-33"
                 id="use318"
                 style="stroke-linecap:square;stroke-linejoin:round"
                 x="0"
                 y="0"
                 width="517"
                 height="371" />
              <use
                 x="63.623047"
                 xlink:href="#DejaVuSans-35"
                 id="use320"
                 style="stroke-linecap:square;stroke-linejoin:round"
                 y="0"
                 width="517"
                 height="371" />
              <use
                 x="127.24609"
                 xlink:href="#DejaVuSans-30"
                 id="use322"
                 style="stroke-linecap:square;stroke-linejoin:round"
                 y="0"
                 width="517"
                 height="371" />
            </g>
          </g>
        </g>
      </g>
      <g
         id="patch_3"
         style="stroke-linecap:square;stroke-linejoin:round">
        <path
           d="m 34.5381,17.46 461.5289,0"
           style="fill:none;stroke:#000000;stroke-linecap:square;stroke-linejoin:round"
           id="path325"
           inkscape:connector-curvature="0" />
      </g>
      <g
         id="patch_4"
         style="stroke-linecap:square;stroke-linejoin:round">
        <path
           d="m 496.067,345.74 0,-328.28"
           style="fill:none;stroke:#000000;stroke-linecap:square;stroke-linejoin:round"
           id="path328"
           inkscape:connector-curvature="0" />
      </g>
      <g
         id="patch_5"
         style="stroke-linecap:square;stroke-linejoin:round">
        <path
           d="m 34.5381,345.74 461.5289,0"
           style="fill:none;stroke:#000000;stroke-linecap:square;stroke-linejoin:round"
           id="path331"
           inkscape:connector-curvature="0" />
      </g>
      <g
         id="patch_6"
         style="stroke-linecap:square;stroke-linejoin:round">
        <path
           d="m 34.5381,345.74 0,-328.28"
           style="fill:none;stroke:#000000;stroke-linecap:square;stroke-linejoin:round"
           id="path334"
           inkscape:connector-curvature="0" />
      </g>
      <g
         id="legend_1"
         style="stroke-linecap:square;stroke-linejoin:round">
        <g
           id="patch_7"
           style="stroke-linecap:square;stroke-linejoin:round">
          <path
             d="m 41.7381,50.517 376.7989,0 0,-25.857 -376.7989,0 0,25.857 z"
             style="fill:#ffffff;stroke:#000000;stroke-linecap:square;stroke-linejoin:round"
             id="path338"
             inkscape:connector-curvature="0" />
        </g>
        <g
           id="line2d_41"
           style="stroke-linecap:square;stroke-linejoin:round">
          <path
             d="m 51.8181,36.3218 20.16,0"
             style="fill:none;stroke:#ff0000;stroke-linecap:square;stroke-linejoin:round"
             id="path341"
             inkscape:connector-curvature="0" />
        </g>
        <g
           id="line2d_42"
           style="stroke-linecap:square;stroke-linejoin:round" />
        <g
           id="text_14"
           style="stroke-linecap:square;stroke-linejoin:round">
          <!-- /acumine_radar/scanner/pose/poses[0]/angle -->
          <defs
             id="defs345">
            <path
               d="m 25.3906,72.9062 8.2969,0 L 8.29688,-9.28125 0,-9.28125 z"
               id="DejaVuSans-2f"
               inkscape:connector-curvature="0"
               style="stroke-linecap:square;stroke-linejoin:round" />
            <path
               d="m 30.6094,48.3906 q -7.2188,0 -11.4219,-5.6406 -4.2031,-5.6406 -4.2031,-15.4531 0,-9.8125 4.1718,-15.4531 4.1876,-5.64068 11.4532,-5.64068 7.1875,0 11.375,5.65628 4.2031,5.6718 4.2031,15.4375 0,9.7187 -4.2031,15.4062 -4.1875,5.6875 -11.375,5.6875 m 0,7.6094 q 11.7187,0 18.4062,-7.625 6.7032,-7.6094 6.7032,-21.0781 0,-13.4219 -6.7032,-21.07815 -6.6875,-7.64063 -18.4062,-7.64063 -11.7656,0 -18.4375,7.64063 -6.65628,7.65625 -6.65628,21.07815 0,13.4687 6.65628,21.0781 Q 18.8438,56 30.6094,56"
               id="DejaVuSans-6f"
               inkscape:connector-curvature="0"
               style="stroke-linecap:square;stroke-linejoin:round" />
            <path
               d="m 8.59375,75.9844 20.70315,0 0,-6.9844 -11.7188,0 0,-75.20312 11.7188,0 0,-6.98438 -20.70315,0 z"
               id="DejaVuSans-5b"
               inkscape:connector-curvature="0"
               style="stroke-linecap:square;stroke-linejoin:round" />
            <path
               d="M 52,44.1875 Q 55.375,50.25 60.0625,53.125 64.75,56 71.0938,56 q 8.5468,0 13.1874,-5.9844 4.6407,-5.9687 4.6407,-17 l 0,-33.0156 -9.0313,0 0,32.7188 q 0,7.8593 -2.7968,11.6562 -2.7813,3.8125 -8.4844,3.8125 -6.9844,0 -11.0469,-4.6406 -4.0469,-4.625 -4.0469,-12.6407 l 0,-30.9062 -9.0312,0 0,32.7188 q 0,7.9062 -2.7813,11.6874 -2.7812,3.7813 -8.5937,3.7813 -6.8906,0 -10.9532,-4.6563 -4.0468,-4.6562 -4.0468,-12.625 l 0,-30.9062 -9.03128,0 0,54.6875 9.03128,0 0,-8.5 q 3.0781,5.0313 7.375,7.4219 Q 29.7812,56 35.6875,56 41.6562,56 45.8281,52.9688 50,49.9531 52,44.1875"
               id="DejaVuSans-6d"
               inkscape:connector-curvature="0"
               style="stroke-linecap:square;stroke-linejoin:round" />
            <path
               d="m 54.8906,33.0156 0,-33.0156 -8.9844,0 0,32.7188 q 0,7.7656 -3.0312,11.6093 -3.0312,3.8594 -9.0781,3.8594 -7.2813,0 -11.4844,-4.6406 -4.2031,-4.625 -4.2031,-12.6407 l 0,-30.9062 -9.03128,0 0,54.6875 9.03128,0 0,-8.5 q 3.2344,4.9375 7.5937,7.375 Q 30.0781,56 35.7969,56 q 9.4219,0 14.25,-5.8281 4.8437,-5.8281 4.8437,-17.1563"
               id="DejaVuSans-6e"
               inkscape:connector-curvature="0"
               style="stroke-linecap:square;stroke-linejoin:round" />
            <path
               d="m 50.9844,-16.6094 0,-6.9687 -51.968775,0 0,6.9687 z"
               id="DejaVuSans-5f"
               inkscape:connector-curvature="0"
               style="stroke-linecap:square;stroke-linejoin:round" />
            <path
               d="m 18.1094,8.20312 0,-29.00002 -9.03128,0 0,75.4844 9.03128,0 0,-8.2969 q 2.8437,4.875 7.1562,7.2344 Q 29.5938,56 35.5938,56 q 9.9687,0 16.1874,-7.9062 6.2344,-7.9063 6.2344,-20.7969 0,-12.8907 -6.2344,-20.81252 -6.2187,-7.90626 -16.1874,-7.90626 -6,0 -10.3282,2.375005 Q 20.9531,3.32812 18.1094,8.20312 M 48.6875,27.2969 q 0,9.9062 -4.0781,15.5469 -4.0782,5.6406 -11.2032,5.6406 -7.1406,0 -11.2187,-5.6406 -4.0781,-5.6407 -4.0781,-15.5469 0,-9.9063 4.0781,-15.5469 4.0781,-5.64062 11.2187,-5.64062 7.125,0 11.2032,5.64062 4.0781,5.6406 4.0781,15.5469"
               id="DejaVuSans-70"
               inkscape:connector-curvature="0"
               style="stroke-linecap:square;stroke-linejoin:round" />
            <path
               d="m 9.42188,75.9844 8.98432,0 0,-75.9844 -8.98432,0 z"
               id="DejaVuSans-6c"
               inkscape:connector-curvature="0"
               style="stroke-linecap:square;stroke-linejoin:round" />
            <path
               d="m 30.4219,75.9844 0,-89.1719 -20.70315,0 0,6.98438 11.67185,0 0,75.20312 -11.67185,0 0,6.9844 z"
               id="DejaVuSans-5d"
               inkscape:connector-curvature="0"
               style="stroke-linecap:square;stroke-linejoin:round" />
            <path
               d="m 9.42188,54.6875 8.98432,0 0,-54.6875 -8.98432,0 z m 0,21.2969 8.98432,0 0,-11.3906 -8.98432,0 z"
               id="DejaVuSans-69"
               inkscape:connector-curvature="0"
               style="stroke-linecap:square;stroke-linejoin:round" />
            <path
               d="m 8.5,21.5781 0,33.1094 8.9844,0 0,-32.7656 q 0,-7.7657 3.0156,-11.6563 3.0312,-3.87498 9.0938,-3.87498 7.2656,0 11.4843,4.64058 4.2344,4.6407 4.2344,12.6563 l 0,31 8.9844,0 0,-54.6875 -8.9844,0 0,8.40625 Q 42.0469,3.42188 37.7188,1 33.4062,-1.42188 27.6875,-1.42188 18.2656,-1.42188 13.375,4.4375 8.5,10.2969 8.5,21.5781 M 31.1094,56 z"
               id="DejaVuSans-75"
               inkscape:connector-curvature="0"
               style="stroke-linecap:square;stroke-linejoin:round" />
            <path
               d="m 45.4062,27.9844 q 0,9.7656 -4.0312,15.125 -4.0156,5.375 -11.2969,5.375 -7.2187,0 -11.25,-5.375 -4.0312,-5.3594 -4.0312,-15.125 0,-9.7188 4.0312,-15.0938 4.0313,-5.37498 11.25,-5.37498 7.2813,0 11.2969,5.37498 4.0312,5.375 4.0312,15.0938 M 54.3906,6.78125 q 0,-13.95313 -6.2031,-20.76565 -6.1875,-6.8125 -18.9844,-6.8125 -4.7343,0 -8.9375,0.7031 -4.2031,0.7032 -8.1562,2.1719 l 0,8.7344 q 3.9531,-2.1406 7.8125,-3.1563 3.8593,-1.0312 7.8593,-1.0312 8.8438,0 13.2344,4.60938 4.3906,4.60937 4.3906,13.9375 l 0,4.45312 Q 42.625,4.78125 38.2812,2.39062 33.9375,0 27.875,0 17.8281,0 11.6719,7.65625 5.51562,15.3281 5.51562,27.9844 q 0,12.6875 6.15628,20.3437 Q 17.8281,56 27.875,56 q 6.0625,0 10.4062,-2.3906 4.3438,-2.3906 7.125,-7.2188 l 0,8.2969 8.9844,0 z"
               id="DejaVuSans-67"
               inkscape:connector-curvature="0"
               style="stroke-linecap:square;stroke-linejoin:round" />
            <path
               d="m 45.4062,46.3906 0,29.5938 8.9844,0 0,-75.9844 -8.9844,0 0,8.20312 Q 42.5781,3.32812 38.25,0.953125 33.9375,-1.42188 27.875,-1.42188 q -9.9062,0 -16.1406,7.90626 -6.21878,7.92182 -6.21878,20.81252 0,12.8906 6.21878,20.7969 Q 17.9688,56 27.875,56 q 6.0625,0 10.375,-2.375 4.3281,-2.3594 7.1562,-7.2344 M 14.7969,27.2969 q 0,-9.9063 4.0781,-15.5469 4.0781,-5.64062 11.2031,-5.64062 7.125,0 11.2188,5.64062 4.1093,5.6406 4.1093,15.5469 0,9.9062 -4.1093,15.5469 -4.0938,5.6406 -11.2188,5.6406 -7.125,0 -11.2031,-5.6406 -4.0781,-5.6407 -4.0781,-15.5469"
               id="DejaVuSans-64"
               inkscape:connector-curvature="0"
               style="stroke-linecap:square;stroke-linejoin:round" />
            <path
               d="m 56.2031,29.5938 0,-4.3907 -41.3125,0 q 0.5938,-9.2812 5.5938,-14.1406 5,-4.85938 13.9375,-4.85938 5.1719,0 10.0312,1.26563 4.8594,1.26563 9.6563,3.81245 l 0,-8.49995 q -4.8438,-2.046875 -9.9219,-3.125 -5.0781,-1.07813 -10.2969,-1.07813 -13.0937,0 -20.7344,7.60938 -7.64058,7.625 -7.64058,20.625 0,13.4219 7.24998,21.2969 Q 20.0156,56 32.3281,56 q 11.0313,0 17.4531,-7.1094 6.4219,-7.0937 6.4219,-19.2968 m -8.9843,2.6406 q -0.0938,7.3594 -4.125,11.75 -4.0313,4.4062 -10.6719,4.4062 -7.5157,0 -12.0313,-4.25 -4.5156,-4.25 -5.2031,-11.9687 z"
               id="DejaVuSans-65"
               inkscape:connector-curvature="0"
               style="stroke-linecap:square;stroke-linejoin:round" />
            <path
               d="m 41.1094,46.2969 q -1.5156,0.875 -3.2969,1.2812 Q 36.0312,48 33.8906,48 26.2656,48 22.1875,43.0469 18.1094,38.0938 18.1094,28.8125 l 0,-28.8125 -9.03128,0 0,54.6875 9.03128,0 0,-8.5 q 2.8437,4.9844 7.375,7.3906 Q 30.0312,56 36.5312,56 q 0.9219,0 2.0469,-0.125 1.125,-0.1094 2.4844,-0.3594 z"
               id="DejaVuSans-72"
               inkscape:connector-curvature="0"
               style="stroke-linecap:square;stroke-linejoin:round" />
            <path
               d="m 48.7812,52.5938 0,-8.4063 q -3.8124,2.1094 -7.6406,3.1563 -3.8281,1.0468 -7.7344,1.0468 -8.75,0 -13.5937,-5.5468 -4.8281,-5.5313 -4.8281,-15.5469 0,-10.0157 4.8281,-15.5625 4.8437,-5.53128 13.5937,-5.53128 3.9063,0 7.7344,1.04688 3.8282,1.04688 7.6406,3.1562 l 0,-8.31245 q -3.7656,-1.75 -7.7968,-2.625 -4.0156,-0.89063 -8.5625,-0.89063 -12.3594,0 -19.6407,7.76563 -7.26558,7.76565 -7.26558,20.95315 0,13.375 7.34378,21.0312 Q 20.2188,56 33.0156,56 q 4.1406,0 8.0938,-0.8594 3.9531,-0.8437 7.6718,-2.5468"
               id="DejaVuSans-63"
               inkscape:connector-curvature="0"
               style="stroke-linecap:square;stroke-linejoin:round" />
            <path
               d="m 44.2812,53.0781 0,-8.5 q -3.7968,1.9531 -7.9062,2.9219 -4.0938,0.9844 -8.5,0.9844 -6.6875,0 -10.0312,-2.0469 Q 14.5,44.3906 14.5,40.2812 q 0,-3.125 2.3906,-4.9062 2.3906,-1.7812 9.625,-3.3906 l 3.0782,-0.6875 q 9.5624,-2.0469 13.5937,-5.7813 4.0313,-3.7344 4.0313,-10.4218 0,-7.62505 -6.0313,-12.07818 -6.0313,-4.4375 -16.5781,-4.4375 -4.3906,0 -9.1563,0.85938 Q 10.6875,0.296875 5.42188,2 l 0,9.2812 q 4.98432,-2.5937 9.81252,-3.89058 4.8281,-1.28124 9.5781,-1.28124 6.3437,0 9.75,2.17187 3.4219,2.17185 3.4219,6.12495 0,3.6563 -2.4688,5.6094 -2.4531,1.9532 -10.8125,3.7656 l -3.125,0.7344 q -8.3437,1.75 -12.06248,5.3906 -3.70312,3.6407 -3.70312,9.9844 0,7.7188 5.4687,11.9063 Q 16.75,56 26.8125,56 q 4.9687,0 9.3594,-0.7344 4.4062,-0.7187 8.1093,-2.1875"
               id="DejaVuSans-73"
               inkscape:connector-curvature="0"
               style="stroke-linecap:square;stroke-linejoin:round" />
            <path
               d="m 34.2812,27.4844 q -10.8906,0 -15.0937,-2.4844 -4.2031,-2.4844 -4.2031,-8.5 0,-4.7812 3.1562,-7.59375 3.1563,-2.79687 8.5625,-2.79687 7.4844,0 12,5.29682 4.5157,5.2969 4.5157,14.0782 l 0,2 z m 17.9219,3.7187 0,-31.2031 -8.9843,0 0,8.29688 Q 40.1406,3.32812 35.5469,0.953125 30.9531,-1.42188 24.3125,-1.42188 q -8.3906,0 -13.3594,4.71876 Q 6,8.01562 6,15.9219 q 0,9.2187 6.1719,13.9062 6.1875,4.6875 18.4375,4.6875 l 12.6094,0 0,0.8906 q 0,6.2032 -4.0782,9.5938 -4.0781,3.3906 -11.4531,3.3906 -4.6875,0 -9.1406,-1.125 -4.4375,-1.125 -8.5313,-3.375 l 0,8.3125 q 4.9219,1.9063 9.5625,2.8438 Q 24.2188,56 28.6094,56 q 11.875,0 17.7344,-6.1562 5.8593,-6.1407 5.8593,-18.6407"
               id="DejaVuSans-61"
               inkscape:connector-curvature="0"
               style="stroke-linecap:square;stroke-linejoin:round" />
          </defs>
          <g
             transform="matrix(0.144,0,0,-0.144,87.818125,41.36175)"
             id="g365"
             style="stroke-linecap:square;stroke-linejoin:round">
            <use
               xlink:href="#DejaVuSans-2f"
               id="use367"
               style="stroke-linecap:square;stroke-linejoin:round"
               x="0"
               y="0"
               width="517"
               height="371" />
            <use
               x="33.691406"
               xlink:href="#DejaVuSans-61"
               id="use369"
               style="stroke-linecap:square;stroke-linejoin:round"
               y="0"
               width="517"
               height="371" />
            <use
               x="94.970703"
               xlink:href="#DejaVuSans-63"
               id="use371"
               style="stroke-linecap:square;stroke-linejoin:round"
               y="0"
               width="517"
               height="371" />
            <use
               x="149.95117"
               xlink:href="#DejaVuSans-75"
               id="use373"
               style="stroke-linecap:square;stroke-linejoin:round"
               y="0"
               width="517"
               height="371" />
            <use
               x="213.33008"
               xlink:href="#DejaVuSans-6d"
               id="use375"
               style="stroke-linecap:square;stroke-linejoin:round"
               y="0"
               width="517"
               height="371" />
            <use
               x="310.74219"
               xlink:href="#DejaVuSans-69"
               id="use377"
               style="stroke-linecap:square;stroke-linejoin:round"
               y="0"
               width="517"
               height="371" />
            <use
               x="338.52539"
               xlink:href="#DejaVuSans-6e"
               id="use379"
               style="stroke-linecap:square;stroke-linejoin:round"
               y="0"
               width="517"
               height="371" />
            <use
               x="401.9043"
               xlink:href="#DejaVuSans-65"
               id="use381"
               style="stroke-linecap:square;stroke-linejoin:round"
               y="0"
               width="517"
               height="371" />
            <use
               x="463.42773"
               xlink:href="#DejaVuSans-5f"
               id="use383"
               style="stroke-linecap:square;stroke-linejoin:round"
               y="0"
               width="517"
               height="371" />
            <use
               x="513.42773"
               xlink:href="#DejaVuSans-72"
               id="use385"
               style="stroke-linecap:square;stroke-linejoin:round"
               y="0"
               width="517"
               height="371" />
            <use
               x="554.54102"
               xlink:href="#DejaVuSans-61"
               id="use387"
               style="stroke-linecap:square;stroke-linejoin:round"
               y="0"
               width="517"
               height="371" />
            <use
               x="615.82031"
               xlink:href="#DejaVuSans-64"
               id="use389"
               style="stroke-linecap:square;stroke-linejoin:round"
               y="0"
               width="517"
               height="371" />
            <use
               x="679.29688"
               xlink:href="#DejaVuSans-61"
               id="use391"
               style="stroke-linecap:square;stroke-linejoin:round"
               y="0"
               width="517"
               height="371" />
            <use
               x="740.57617"
               xlink:href="#DejaVuSans-72"
               id="use393"
               style="stroke-linecap:square;stroke-linejoin:round"
               y="0"
               width="517"
               height="371" />
            <use
               x="781.68945"
               xlink:href="#DejaVuSans-2f"
               id="use395"
               style="stroke-linecap:square;stroke-linejoin:round"
               y="0"
               width="517"
               height="371" />
            <use
               x="815.38086"
               xlink:href="#DejaVuSans-73"
               id="use397"
               style="stroke-linecap:square;stroke-linejoin:round"
               y="0"
               width="517"
               height="371" />
            <use
               x="867.48047"
               xlink:href="#DejaVuSans-63"
               id="use399"
               style="stroke-linecap:square;stroke-linejoin:round"
               y="0"
               width="517"
               height="371" />
            <use
               x="922.46094"
               xlink:href="#DejaVuSans-61"
               id="use401"
               style="stroke-linecap:square;stroke-linejoin:round"
               y="0"
               width="517"
               height="371" />
            <use
               x="983.74023"
               xlink:href="#DejaVuSans-6e"
               id="use403"
               style="stroke-linecap:square;stroke-linejoin:round"
               y="0"
               width="517"
               height="371" />
            <use
               x="1047.1191"
               xlink:href="#DejaVuSans-6e"
               id="use405"
               style="stroke-linecap:square;stroke-linejoin:round"
               y="0"
               width="517"
               height="371" />
            <use
               x="1110.498"
               xlink:href="#DejaVuSans-65"
               id="use407"
               style="stroke-linecap:square;stroke-linejoin:round"
               y="0"
               width="517"
               height="371" />
            <use
               x="1172.0215"
               xlink:href="#DejaVuSans-72"
               id="use409"
               style="stroke-linecap:square;stroke-linejoin:round"
               y="0"
               width="517"
               height="371" />
            <use
               x="1213.1348"
               xlink:href="#DejaVuSans-2f"
               id="use411"
               style="stroke-linecap:square;stroke-linejoin:round"
               y="0"
               width="517"
               height="371" />
            <use
               x="1246.8262"
               xlink:href="#DejaVuSans-70"
               id="use413"
               style="stroke-linecap:square;stroke-linejoin:round"
               y="0"
               width="517"
               height="371" />
            <use
               x="1310.3027"
               xlink:href="#DejaVuSans-6f"
               id="use415"
               style="stroke-linecap:square;stroke-linejoin:round"
               y="0"
               width="517"
               height="371" />
            <use
               x="1371.4844"
               xlink:href="#DejaVuSans-73"
               id="use417"
               style="stroke-linecap:square;stroke-linejoin:round"
               y="0"
               width="517"
               height="371" />
            <use
               x="1423.584"
               xlink:href="#DejaVuSans-65"
               id="use419"
               style="stroke-linecap:square;stroke-linejoin:round"
               y="0"
               width="517"
               height="371" />
            <use
               x="1485.1074"
               xlink:href="#DejaVuSans-2f"
               id="use421"
               style="stroke-linecap:square;stroke-linejoin:round"
               y="0"
               width="517"
               height="371" />
            <use
               x="1518.7988"
               xlink:href="#DejaVuSans-70"
               id="use423"
               style="stroke-linecap:square;stroke-linejoin:round"
               y="0"
               width="517"
               height="371" />
            <use
               x="1582.2754"
               xlink:href="#DejaVuSans-6f"
               id="use425"
               style="stroke-linecap:square;stroke-linejoin:round"
               y="0"
               width="517"
               height="371" />
            <use
               x="1643.457"
               xlink:href="#DejaVuSans-73"
               id="use427"
               style="stroke-linecap:square;stroke-linejoin:round"
               y="0"
               width="517"
               height="371" />
            <use
               x="1695.5566"
               xlink:href="#DejaVuSans-65"
               id="use429"
               style="stroke-linecap:square;stroke-linejoin:round"
               y="0"
               width="517"
               height="371" />
            <use
               x="1757.0801"
               xlink:href="#DejaVuSans-73"
               id="use431"
               style="stroke-linecap:square;stroke-linejoin:round"
               y="0"
               width="517"
               height="371" />
            <use
               x="1809.1797"
               xlink:href="#DejaVuSans-5b"
               id="use433"
               style="stroke-linecap:square;stroke-linejoin:round"
               y="0"
               width="517"
               height="371" />
            <use
               x="1848.1934"
               xlink:href="#DejaVuSans-30"
               id="use435"
               style="stroke-linecap:square;stroke-linejoin:round"
               y="0"
               width="517"
               height="371" />
            <use
               x="1911.8164"
               xlink:href="#DejaVuSans-5d"
               id="use437"
               style="stroke-linecap:square;stroke-linejoin:round"
               y="0"
               width="517"
               height="371" />
            <use
               x="1950.8301"
               xlink:href="#DejaVuSans-2f"
               id="use439"
               style="stroke-linecap:square;stroke-linejoin:round"
               y="0"
               width="517"
               height="371" />
            <use
               x="1984.5215"
               xlink:href="#DejaVuSans-61"
               id="use441"
               style="stroke-linecap:square;stroke-linejoin:round"
               y="0"
               width="517"
               height="371" />
            <use
               x="2045.8008"
               xlink:href="#DejaVuSans-6e"
               id="use443"
               style="stroke-linecap:square;stroke-linejoin:round"
               y="0"
               width="517"
               height="371" />
            <use
               x="2109.1797"
               xlink:href="#DejaVuSans-67"
               id="use445"
               style="stroke-linecap:square;stroke-linejoin:round"
               y="0"
               width="517"
               height="371" />
            <use
               x="2172.6562"
               xlink:href="#DejaVuSans-6c"
               id="use447"
               style="stroke-linecap:square;stroke-linejoin:round"
               y="0"
               width="517"
               height="371" />
            <use
               x="2200.4395"
               xlink:href="#DejaVuSans-65"
               id="use449"
               style="stroke-linecap:square;stroke-linejoin:round"
               y="0"
               width="517"
               height="371" />
          </g>
        </g>
      </g>
    </g>
  </g>
  <defs
     id="defs451">
    <clipPath
       id="pddf12f07a6">
      <rect
         height="328.28"
         width="461.52921"
         x="34.538124"
         y="17.459999"
         id="rect454"
         style="stroke-linecap:square;stroke-linejoin:round" />
    </clipPath>
  </defs>
  <text
     xml:space="preserve"
     style="font-size:32px;font-style:normal;font-weight:normal;line-height:125%;letter-spacing:0px;word-spacing:0px;fill:#000000;fill-opacity:1;stroke:none;font-family:Sans"
     x="-219.12503"
     y="14.835938"
     id="text3831-5"
     sodipodi:linespacing="125%"
     transform="matrix(0,-1,1,0,0,0)"><tspan
       sodipodi:role="line"
       x="-219.12503"
       y="14.835938"
       id="tspan3835-1"
       style="font-size:16px">Ángulo [º]</tspan></text>
  <text
     xml:space="preserve"
     style="font-size:32px;font-style:normal;font-weight:normal;line-height:125%;letter-spacing:0px;word-spacing:0px;fill:#000000;fill-opacity:1;stroke:none;font-family:Sans"
     x="248.04675"
     y="383.67188"
     id="text3831"
     sodipodi:linespacing="125%"><tspan
       sodipodi:role="line"
       x="248.04675"
       y="383.67188"
       id="tspan3835"
       style="font-size:16px">Tiempo [s]</tspan></text>
</svg>
