<?xml version="1.0" encoding="UTF-8" standalone="no"?>
<!-- Created with matplotlib (http://matplotlib.sourceforge.net/) -->

<svg
   xmlns:dc="http://purl.org/dc/elements/1.1/"
   xmlns:cc="http://creativecommons.org/ns#"
   xmlns:rdf="http://www.w3.org/1999/02/22-rdf-syntax-ns#"
   xmlns:svg="http://www.w3.org/2000/svg"
   xmlns="http://www.w3.org/2000/svg"
   xmlns:xlink="http://www.w3.org/1999/xlink"
   xmlns:sodipodi="http://sodipodi.sourceforge.net/DTD/sodipodi-0.dtd"
   xmlns:inkscape="http://www.inkscape.org/namespaces/inkscape"
   height="402pt"
   version="1.1"
   viewBox="0 0 597 402"
   width="597pt"
   id="svg2"
   inkscape:version="0.48.3.1 r9886"
   sodipodi:docname="scanner_90_270_2.svg">
  <metadata
     id="metadata410">
    <rdf:RDF>
      <cc:Work
         rdf:about="">
        <dc:format>image/svg+xml</dc:format>
        <dc:type
           rdf:resource="http://purl.org/dc/dcmitype/StillImage" />
      </cc:Work>
    </rdf:RDF>
  </metadata>
  <sodipodi:namedview
     pagecolor="#ffffff"
     bordercolor="#666666"
     borderopacity="1"
     objecttolerance="10"
     gridtolerance="10"
     guidetolerance="10"
     inkscape:pageopacity="0"
     inkscape:pageshadow="2"
     inkscape:window-width="1366"
     inkscape:window-height="717"
     id="namedview408"
     showgrid="false"
     inkscape:zoom="1.0475435"
     inkscape:cx="373.125"
     inkscape:cy="251.25"
     inkscape:window-x="0"
     inkscape:window-y="0"
     inkscape:window-maximized="1"
     inkscape:current-layer="svg2" />
  <defs
     id="defs4">
    <style
       type="text/css"
       id="style6">
*{stroke-linecap:square;stroke-linejoin:round;}
  </style>
  </defs>
  <g
     id="figure_1">
    <g
       id="patch_1">
      <path
         d=" M0 402.3 L597.6 402.3 L597.6 0 L0 0 z "
         style="fill:#ffffff;"
         id="path10" />
    </g>
    <g
       id="axes_1">
      <g
         id="patch_2">
        <path
           d=" M34.5381 376.34 L576.167 376.34 L576.167 17.46 L34.5381 17.46 z "
           style="fill:#ffffff;"
           id="path14" />
      </g>
      <g
         id="line2d_1">
        <path
           clip-path="url(#pa3adb72257)"
           d=" M33.4348 351.451 L128.644 351.451 L128.925 351.175 L133.322 351.175 L134.104 350.899 L135.537 350.624 L136.335 350.072 L138.004 349.797 L139.502 348.97 L140.752 348.143 L140.93 347.04 L142.77 345.937 L143.266 344.559 L145.166 343.181 L146.568 341.526 L147.682 339.597 L148.562 337.667 L149.385 335.462 L151.222 333.532 L151.833 331.327 L153.452 329.397 L154.375 327.191 L155.888 324.986 L156.676 323.056 L159.726 319.748 L161.046 317.543 L161.714 315.337 L163.241 312.856 L164.057 310.651 L164.821 307.619 L166.504 305.689 L167.324 303.483 L168.999 301.829 L169.802 299.624 L171.794 297.97 L171.802 296.04 L173.461 293.835 L174.294 291.078 L175.926 288.597 L176.882 285.289 L178.624 282.532 L179.189 280.051 L180.244 277.294 L181.61 275.089 L182.402 271.781 L184.933 268.197 L184.947 263.786 L186.124 260.203 L186.943 256.619 L188.703 253.862 L189.382 249.727 L191.3 245.316 L191.89 240.905 L192.821 237.046 L194.418 233.186 L195.294 229.603 L196.829 225.468 L197.896 220.781 L200.548 212.235 L201.406 208.927 L202.12 204.792 L203.812 200.381 L204.595 195.419 L205.46 191.835 L207.196 188.252 L207.871 184.392 L210.003 180.257 L210.291 175.295 L212.187 171.711 L212.522 167.852 L213.961 165.095 L214.897 161.511 L216.474 157.376 L217.321 153.241 L220.106 150.209 L221.173 147.452 L221.184 144.695 L222.462 142.765 L223.183 140.284 L224.632 137.528 L226.174 135.046 L227.116 132.29 L228.482 129.809 L228.648 127.879 L230.589 125.949 L231.144 123.744 L232.863 122.09 L233.134 120.711 L234.803 118.506 L236.587 116.576 L237.99 114.095 L238.029 111.89 L239.708 109.133 L240.529 107.203 L243.131 105.274 L243.148 103.62 L243.748 101.414 L245.441 99.7601 L246.761 98.1061 L248.022 96.1764 L248.703 94.2466 L250.956 92.0412 L250.969 90.1115 L253.472 86.2521 L254.856 84.598 L255.683 83.2196 L257.377 81.8413 L258.125 80.7386 L258.903 79.3602 L260.77 78.5332 L261.327 77.9818 L263.777 76.8791 L266.314 76.0521 L267.949 75.7765 L268.698 75.5008 L576.793 75.5008 L576.793 75.5008"
           style="fill:none;stroke:#ff0000;"
           id="path17" />
      </g>
      <g
         id="matplotlib.axis_1">
        <g
           id="xtick_1">
          <g
             id="line2d_2">
            <path
               clip-path="url(#pa3adb72257)"
               d=" M121.944 376.34 L121.944 17.46"
               style="fill:none;stroke:#808080;stroke-dasharray:1.000000,3.000000;stroke-dashoffset:0.0;stroke-linecap:butt;stroke-width:0.5;"
               id="path22" />
          </g>
          <g
             id="line2d_3">
            <defs
               id="defs25">
              <path
                 d=" M0 0 L0 -4"
                 id="m0012dd4eef"
                 style="stroke:#000000;stroke-linecap:butt;stroke-width:0.5;" />
            </defs>
            <g
               id="g28">
              <use
                 style="stroke:#000000;stroke-linecap:butt;stroke-width:0.5;"
                 x="121.94407595"
                 xlink:href="#m0012dd4eef"
                 y="376.34"
                 id="use30" />
            </g>
          </g>
          <g
             id="line2d_4">
            <defs
               id="defs33">
              <path
                 d=" M0 0 L0 4"
                 id="m476344969c"
                 style="stroke:#000000;stroke-linecap:butt;stroke-width:0.5;" />
            </defs>
            <g
               id="g36">
              <use
                 style="stroke:#000000;stroke-linecap:butt;stroke-width:0.5;"
                 x="121.94407595"
                 xlink:href="#m476344969c"
                 y="17.46"
                 id="use38" />
            </g>
          </g>
          <g
             id="text_1">
            <!-- 24 -->
            <defs
               id="defs41">
              <path
                 d=" M19.1875 8.29688 L53.6094 8.29688 L53.6094 0 L7.32812 0 L7.32812 8.29688 Q12.9375 14.1094 22.625 23.8906 Q32.3281 33.6875 34.8125 36.5312 Q39.5469 41.8438 41.4219 45.5312 Q43.3125 49.2188 43.3125 52.7812 Q43.3125 58.5938 39.2344 62.25 Q35.1562 65.9219 28.6094 65.9219 Q23.9688 65.9219 18.8125 64.3125 Q13.6719 62.7031 7.8125 59.4219 L7.8125 69.3906 Q13.7656 71.7812 18.9375 73 Q24.125 74.2188 28.4219 74.2188 Q39.75 74.2188 46.4844 68.5469 Q53.2188 62.8906 53.2188 53.4219 Q53.2188 48.9219 51.5312 44.8906 Q49.8594 40.875 45.4062 35.4062 Q44.1875 33.9844 37.6406 27.2188 Q31.1094 20.4531 19.1875 8.29688"
                 id="DejaVuSans-32" />
              <path
                 d=" M37.7969 64.3125 L12.8906 25.3906 L37.7969 25.3906 z  M35.2031 72.9062 L47.6094 72.9062 L47.6094 25.3906 L58.0156 25.3906 L58.0156 17.1875 L47.6094 17.1875 L47.6094 0 L37.7969 0 L37.7969 17.1875 L4.89062 17.1875 L4.89062 26.7031 z "
                 id="DejaVuSans-34" />
            </defs>
            <g
               transform="translate(115.08532595 389.24625)scale(0.12 -0.12)"
               id="g45">
              <use
                 xlink:href="#DejaVuSans-32"
                 id="use47" />
              <use
                 x="63.623046875"
                 xlink:href="#DejaVuSans-34"
                 id="use49" />
            </g>
          </g>
        </g>
        <g
           id="xtick_2">
          <g
             id="line2d_5">
            <path
               clip-path="url(#pa3adb72257)"
               d=" M229.444 376.34 L229.444 17.46"
               style="fill:none;stroke:#808080;stroke-dasharray:1.000000,3.000000;stroke-dashoffset:0.0;stroke-linecap:butt;stroke-width:0.5;"
               id="path53" />
          </g>
          <g
             id="line2d_6">
            <g
               id="g56">
              <use
                 style="stroke:#000000;stroke-linecap:butt;stroke-width:0.5;"
                 x="229.444152563"
                 xlink:href="#m0012dd4eef"
                 y="376.34"
                 id="use58" />
            </g>
          </g>
          <g
             id="line2d_7">
            <g
               id="g61">
              <use
                 style="stroke:#000000;stroke-linecap:butt;stroke-width:0.5;"
                 x="229.444152563"
                 xlink:href="#m476344969c"
                 y="17.46"
                 id="use63" />
            </g>
          </g>
          <g
             id="text_2">
            <!-- 25 -->
            <defs
               id="defs66">
              <path
                 d=" M10.7969 72.9062 L49.5156 72.9062 L49.5156 64.5938 L19.8281 64.5938 L19.8281 46.7344 Q21.9688 47.4688 24.1094 47.8281 Q26.2656 48.1875 28.4219 48.1875 Q40.625 48.1875 47.75 41.5 Q54.8906 34.8125 54.8906 23.3906 Q54.8906 11.625 47.5625 5.09375 Q40.2344 -1.42188 26.9062 -1.42188 Q22.3125 -1.42188 17.5469 -0.640625 Q12.7969 0.140625 7.71875 1.70312 L7.71875 11.625 Q12.1094 9.23438 16.7969 8.0625 Q21.4844 6.89062 26.7031 6.89062 Q35.1562 6.89062 40.0781 11.3281 Q45.0156 15.7656 45.0156 23.3906 Q45.0156 31 40.0781 35.4375 Q35.1562 39.8906 26.7031 39.8906 Q22.75 39.8906 18.8125 39.0156 Q14.8906 38.1406 10.7969 36.2812 z "
                 id="DejaVuSans-35" />
            </defs>
            <g
               transform="translate(222.772902563 389.24625)scale(0.12 -0.12)"
               id="g69">
              <use
                 xlink:href="#DejaVuSans-32"
                 id="use71" />
              <use
                 x="63.623046875"
                 xlink:href="#DejaVuSans-35"
                 id="use73" />
            </g>
          </g>
        </g>
        <g
           id="xtick_3">
          <g
             id="line2d_8">
            <path
               clip-path="url(#pa3adb72257)"
               d=" M336.944 376.34 L336.944 17.46"
               style="fill:none;stroke:#808080;stroke-dasharray:1.000000,3.000000;stroke-dashoffset:0.0;stroke-linecap:butt;stroke-width:0.5;"
               id="path77" />
          </g>
          <g
             id="line2d_9">
            <g
               id="g80">
              <use
                 style="stroke:#000000;stroke-linecap:butt;stroke-width:0.5;"
                 x="336.944229175"
                 xlink:href="#m0012dd4eef"
                 y="376.34"
                 id="use82" />
            </g>
          </g>
          <g
             id="line2d_10">
            <g
               id="g85">
              <use
                 style="stroke:#000000;stroke-linecap:butt;stroke-width:0.5;"
                 x="336.944229175"
                 xlink:href="#m476344969c"
                 y="17.46"
                 id="use87" />
            </g>
          </g>
          <g
             id="text_3">
            <!-- 26 -->
            <defs
               id="defs90">
              <path
                 d=" M33.0156 40.375 Q26.375 40.375 22.4844 35.8281 Q18.6094 31.2969 18.6094 23.3906 Q18.6094 15.5312 22.4844 10.9531 Q26.375 6.39062 33.0156 6.39062 Q39.6562 6.39062 43.5312 10.9531 Q47.4062 15.5312 47.4062 23.3906 Q47.4062 31.2969 43.5312 35.8281 Q39.6562 40.375 33.0156 40.375 M52.5938 71.2969 L52.5938 62.3125 Q48.875 64.0625 45.0938 64.9844 Q41.3125 65.9219 37.5938 65.9219 Q27.8281 65.9219 22.6719 59.3281 Q17.5312 52.7344 16.7969 39.4062 Q19.6719 43.6562 24.0156 45.9219 Q28.375 48.1875 33.5938 48.1875 Q44.5781 48.1875 50.9531 41.5156 Q57.3281 34.8594 57.3281 23.3906 Q57.3281 12.1562 50.6875 5.35938 Q44.0469 -1.42188 33.0156 -1.42188 Q20.3594 -1.42188 13.6719 8.26562 Q6.98438 17.9688 6.98438 36.375 Q6.98438 53.6562 15.1875 63.9375 Q23.3906 74.2188 37.2031 74.2188 Q40.9219 74.2188 44.7031 73.4844 Q48.4844 72.75 52.5938 71.2969"
                 id="DejaVuSans-36" />
            </defs>
            <g
               transform="translate(330.126729175 389.24625)scale(0.12 -0.12)"
               id="g93">
              <use
                 xlink:href="#DejaVuSans-32"
                 id="use95" />
              <use
                 x="63.623046875"
                 xlink:href="#DejaVuSans-36"
                 id="use97" />
            </g>
          </g>
        </g>
        <g
           id="xtick_4">
          <g
             id="line2d_11">
            <path
               clip-path="url(#pa3adb72257)"
               d=" M444.444 376.34 L444.444 17.46"
               style="fill:none;stroke:#808080;stroke-dasharray:1.000000,3.000000;stroke-dashoffset:0.0;stroke-linecap:butt;stroke-width:0.5;"
               id="path101" />
          </g>
          <g
             id="line2d_12">
            <g
               id="g104">
              <use
                 style="stroke:#000000;stroke-linecap:butt;stroke-width:0.5;"
                 x="444.444305787"
                 xlink:href="#m0012dd4eef"
                 y="376.34"
                 id="use106" />
            </g>
          </g>
          <g
             id="line2d_13">
            <g
               id="g109">
              <use
                 style="stroke:#000000;stroke-linecap:butt;stroke-width:0.5;"
                 x="444.444305787"
                 xlink:href="#m476344969c"
                 y="17.46"
                 id="use111" />
            </g>
          </g>
          <g
             id="text_4">
            <!-- 27 -->
            <defs
               id="defs114">
              <path
                 d=" M8.20312 72.9062 L55.0781 72.9062 L55.0781 68.7031 L28.6094 0 L18.3125 0 L43.2188 64.5938 L8.20312 64.5938 z "
                 id="DejaVuSans-37" />
            </defs>
            <g
               transform="translate(437.761805787 389.24625)scale(0.12 -0.12)"
               id="g117">
              <use
                 xlink:href="#DejaVuSans-32"
                 id="use119" />
              <use
                 x="63.623046875"
                 xlink:href="#DejaVuSans-37"
                 id="use121" />
            </g>
          </g>
        </g>
        <g
           id="xtick_5">
          <g
             id="line2d_14">
            <path
               clip-path="url(#pa3adb72257)"
               d=" M551.944 376.34 L551.944 17.46"
               style="fill:none;stroke:#808080;stroke-dasharray:1.000000,3.000000;stroke-dashoffset:0.0;stroke-linecap:butt;stroke-width:0.5;"
               id="path125" />
          </g>
          <g
             id="line2d_15">
            <g
               id="g128">
              <use
                 style="stroke:#000000;stroke-linecap:butt;stroke-width:0.5;"
                 x="551.944382399"
                 xlink:href="#m0012dd4eef"
                 y="376.34"
                 id="use130" />
            </g>
          </g>
          <g
             id="line2d_16">
            <g
               id="g133">
              <use
                 style="stroke:#000000;stroke-linecap:butt;stroke-width:0.5;"
                 x="551.944382399"
                 xlink:href="#m476344969c"
                 y="17.46"
                 id="use135" />
            </g>
          </g>
          <g
             id="text_5">
            <!-- 28 -->
            <defs
               id="defs138">
              <path
                 d=" M31.7812 34.625 Q24.75 34.625 20.7188 30.8594 Q16.7031 27.0938 16.7031 20.5156 Q16.7031 13.9219 20.7188 10.1562 Q24.75 6.39062 31.7812 6.39062 Q38.8125 6.39062 42.8594 10.1719 Q46.9219 13.9688 46.9219 20.5156 Q46.9219 27.0938 42.8906 30.8594 Q38.875 34.625 31.7812 34.625 M21.9219 38.8125 Q15.5781 40.375 12.0312 44.7188 Q8.5 49.0781 8.5 55.3281 Q8.5 64.0625 14.7188 69.1406 Q20.9531 74.2188 31.7812 74.2188 Q42.6719 74.2188 48.875 69.1406 Q55.0781 64.0625 55.0781 55.3281 Q55.0781 49.0781 51.5312 44.7188 Q48 40.375 41.7031 38.8125 Q48.8281 37.1562 52.7969 32.3125 Q56.7812 27.4844 56.7812 20.5156 Q56.7812 9.90625 50.3125 4.23438 Q43.8438 -1.42188 31.7812 -1.42188 Q19.7344 -1.42188 13.25 4.23438 Q6.78125 9.90625 6.78125 20.5156 Q6.78125 27.4844 10.7812 32.3125 Q14.7969 37.1562 21.9219 38.8125 M18.3125 54.3906 Q18.3125 48.7344 21.8438 45.5625 Q25.3906 42.3906 31.7812 42.3906 Q38.1406 42.3906 41.7188 45.5625 Q45.3125 48.7344 45.3125 54.3906 Q45.3125 60.0625 41.7188 63.2344 Q38.1406 66.4062 31.7812 66.4062 Q25.3906 66.4062 21.8438 63.2344 Q18.3125 60.0625 18.3125 54.3906"
                 id="DejaVuSans-38" />
            </defs>
            <g
               transform="translate(545.159694899 389.24625)scale(0.12 -0.12)"
               id="g141">
              <use
                 xlink:href="#DejaVuSans-32"
                 id="use143" />
              <use
                 x="63.623046875"
                 xlink:href="#DejaVuSans-38"
                 id="use145" />
            </g>
          </g>
        </g>
      </g>
      <g
         id="matplotlib.axis_2">
        <g
           id="ytick_1">
          <g
             id="line2d_17">
            <path
               clip-path="url(#pa3adb72257)"
               d=" M34.5381 336.135 L576.167 336.135"
               style="fill:none;stroke:#808080;stroke-dasharray:1.000000,3.000000;stroke-dashoffset:0.0;stroke-linecap:butt;stroke-width:0.5;"
               id="path150" />
          </g>
          <g
             id="line2d_18">
            <defs
               id="defs153">
              <path
                 d=" M0 0 L4 0"
                 id="me8a85f7bf6"
                 style="stroke:#000000;stroke-linecap:butt;stroke-width:0.5;" />
            </defs>
            <g
               id="g156">
              <use
                 style="stroke:#000000;stroke-linecap:butt;stroke-width:0.5;"
                 x="34.538125"
                 xlink:href="#me8a85f7bf6"
                 y="336.135494674"
                 id="use158" />
            </g>
          </g>
          <g
             id="line2d_19">
            <defs
               id="defs161">
              <path
                 d=" M0 0 L-4 0"
                 id="m1a32005dea"
                 style="stroke:#000000;stroke-linecap:butt;stroke-width:0.5;" />
            </defs>
            <g
               id="g164">
              <use
                 style="stroke:#000000;stroke-linecap:butt;stroke-width:0.5;"
                 x="576.16734375"
                 xlink:href="#m1a32005dea"
                 y="336.135494674"
                 id="use166" />
            </g>
          </g>
          <g
             id="text_6">
            <!-- 100 -->
            <defs
               id="defs169">
              <path
                 d=" M12.4062 8.29688 L28.5156 8.29688 L28.5156 63.9219 L10.9844 60.4062 L10.9844 69.3906 L28.4219 72.9062 L38.2812 72.9062 L38.2812 8.29688 L54.3906 8.29688 L54.3906 0 L12.4062 0 z "
                 id="DejaVuSans-31" />
              <path
                 d=" M31.7812 66.4062 Q24.1719 66.4062 20.3281 58.9062 Q16.5 51.4219 16.5 36.375 Q16.5 21.3906 20.3281 13.8906 Q24.1719 6.39062 31.7812 6.39062 Q39.4531 6.39062 43.2812 13.8906 Q47.125 21.3906 47.125 36.375 Q47.125 51.4219 43.2812 58.9062 Q39.4531 66.4062 31.7812 66.4062 M31.7812 74.2188 Q44.0469 74.2188 50.5156 64.5156 Q56.9844 54.8281 56.9844 36.375 Q56.9844 17.9688 50.5156 8.26562 Q44.0469 -1.42188 31.7812 -1.42188 Q19.5312 -1.42188 13.0625 8.26562 Q6.59375 17.9688 6.59375 36.375 Q6.59375 54.8281 13.0625 64.5156 Q19.5312 74.2188 31.7812 74.2188"
                 id="DejaVuSans-30" />
            </defs>
            <g
               transform="translate(9.748125 340.503307174)scale(0.12 -0.12)"
               id="g173">
              <use
                 xlink:href="#DejaVuSans-31"
                 id="use175" />
              <use
                 x="63.623046875"
                 xlink:href="#DejaVuSans-30"
                 id="use177" />
              <use
                 x="127.24609375"
                 xlink:href="#DejaVuSans-30"
                 id="use179" />
            </g>
          </g>
        </g>
        <g
           id="ytick_2">
          <g
             id="line2d_20">
            <path
               clip-path="url(#pa3adb72257)"
               d=" M34.5381 259.559 L576.167 259.559"
               style="fill:none;stroke:#808080;stroke-dasharray:1.000000,3.000000;stroke-dashoffset:0.0;stroke-linecap:butt;stroke-width:0.5;"
               id="path183" />
          </g>
          <g
             id="line2d_21">
            <g
               id="g186">
              <use
                 style="stroke:#000000;stroke-linecap:butt;stroke-width:0.5;"
                 x="34.538125"
                 xlink:href="#me8a85f7bf6"
                 y="259.559305289"
                 id="use188" />
            </g>
          </g>
          <g
             id="line2d_22">
            <g
               id="g191">
              <use
                 style="stroke:#000000;stroke-linecap:butt;stroke-width:0.5;"
                 x="576.16734375"
                 xlink:href="#m1a32005dea"
                 y="259.559305289"
                 id="use193" />
            </g>
          </g>
          <g
             id="text_7">
            <!-- 150 -->
            <g
               transform="translate(9.748125 263.927117789)scale(0.12 -0.12)"
               id="g196">
              <use
                 xlink:href="#DejaVuSans-31"
                 id="use198" />
              <use
                 x="63.623046875"
                 xlink:href="#DejaVuSans-35"
                 id="use200" />
              <use
                 x="127.24609375"
                 xlink:href="#DejaVuSans-30"
                 id="use202" />
            </g>
          </g>
        </g>
        <g
           id="ytick_3">
          <g
             id="line2d_23">
            <path
               clip-path="url(#pa3adb72257)"
               d=" M34.5381 182.983 L576.167 182.983"
               style="fill:none;stroke:#808080;stroke-dasharray:1.000000,3.000000;stroke-dashoffset:0.0;stroke-linecap:butt;stroke-width:0.5;"
               id="path206" />
          </g>
          <g
             id="line2d_24">
            <g
               id="g209">
              <use
                 style="stroke:#000000;stroke-linecap:butt;stroke-width:0.5;"
                 x="34.538125"
                 xlink:href="#me8a85f7bf6"
                 y="182.983115903"
                 id="use211" />
            </g>
          </g>
          <g
             id="line2d_25">
            <g
               id="g214">
              <use
                 style="stroke:#000000;stroke-linecap:butt;stroke-width:0.5;"
                 x="576.16734375"
                 xlink:href="#m1a32005dea"
                 y="182.983115903"
                 id="use216" />
            </g>
          </g>
          <g
             id="text_8">
            <!-- 200 -->
            <g
               transform="translate(9.309375 187.350928403)scale(0.12 -0.12)"
               id="g219">
              <use
                 xlink:href="#DejaVuSans-32"
                 id="use221" />
              <use
                 x="63.623046875"
                 xlink:href="#DejaVuSans-30"
                 id="use223" />
              <use
                 x="127.24609375"
                 xlink:href="#DejaVuSans-30"
                 id="use225" />
            </g>
          </g>
        </g>
        <g
           id="ytick_4">
          <g
             id="line2d_26">
            <path
               clip-path="url(#pa3adb72257)"
               d=" M34.5381 106.407 L576.167 106.407"
               style="fill:none;stroke:#808080;stroke-dasharray:1.000000,3.000000;stroke-dashoffset:0.0;stroke-linecap:butt;stroke-width:0.5;"
               id="path229" />
          </g>
          <g
             id="line2d_27">
            <g
               id="g232">
              <use
                 style="stroke:#000000;stroke-linecap:butt;stroke-width:0.5;"
                 x="34.538125"
                 xlink:href="#me8a85f7bf6"
                 y="106.406926518"
                 id="use234" />
            </g>
          </g>
          <g
             id="line2d_28">
            <g
               id="g237">
              <use
                 style="stroke:#000000;stroke-linecap:butt;stroke-width:0.5;"
                 x="576.16734375"
                 xlink:href="#m1a32005dea"
                 y="106.406926518"
                 id="use239" />
            </g>
          </g>
          <g
             id="text_9">
            <!-- 250 -->
            <g
               transform="translate(9.309375 110.774739018)scale(0.12 -0.12)"
               id="g242">
              <use
                 xlink:href="#DejaVuSans-32"
                 id="use244" />
              <use
                 x="63.623046875"
                 xlink:href="#DejaVuSans-35"
                 id="use246" />
              <use
                 x="127.24609375"
                 xlink:href="#DejaVuSans-30"
                 id="use248" />
            </g>
          </g>
        </g>
        <g
           id="ytick_5">
          <g
             id="line2d_29">
            <path
               clip-path="url(#pa3adb72257)"
               d=" M34.5381 29.8307 L576.167 29.8307"
               style="fill:none;stroke:#808080;stroke-dasharray:1.000000,3.000000;stroke-dashoffset:0.0;stroke-linecap:butt;stroke-width:0.5;"
               id="path252" />
          </g>
          <g
             id="line2d_30">
            <g
               id="g255">
              <use
                 style="stroke:#000000;stroke-linecap:butt;stroke-width:0.5;"
                 x="34.538125"
                 xlink:href="#me8a85f7bf6"
                 y="29.8307371333"
                 id="use257" />
            </g>
          </g>
          <g
             id="line2d_31">
            <g
               id="g260">
              <use
                 style="stroke:#000000;stroke-linecap:butt;stroke-width:0.5;"
                 x="576.16734375"
                 xlink:href="#m1a32005dea"
                 y="29.8307371333"
                 id="use262" />
            </g>
          </g>
          <g
             id="text_10">
            <!-- 300 -->
            <defs
               id="defs265">
              <path
                 d=" M40.5781 39.3125 Q47.6562 37.7969 51.625 33 Q55.6094 28.2188 55.6094 21.1875 Q55.6094 10.4062 48.1875 4.48438 Q40.7656 -1.42188 27.0938 -1.42188 Q22.5156 -1.42188 17.6562 -0.515625 Q12.7969 0.390625 7.625 2.20312 L7.625 11.7188 Q11.7188 9.32812 16.5938 8.10938 Q21.4844 6.89062 26.8125 6.89062 Q36.0781 6.89062 40.9375 10.5469 Q45.7969 14.2031 45.7969 21.1875 Q45.7969 27.6406 41.2812 31.2656 Q36.7656 34.9062 28.7188 34.9062 L20.2188 34.9062 L20.2188 43.0156 L29.1094 43.0156 Q36.375 43.0156 40.2344 45.9219 Q44.0938 48.8281 44.0938 54.2969 Q44.0938 59.9062 40.1094 62.9062 Q36.1406 65.9219 28.7188 65.9219 Q24.6562 65.9219 20.0156 65.0312 Q15.375 64.1562 9.8125 62.3125 L9.8125 71.0938 Q15.4375 72.6562 20.3438 73.4375 Q25.25 74.2188 29.5938 74.2188 Q40.8281 74.2188 47.3594 69.1094 Q53.9062 64.0156 53.9062 55.3281 Q53.9062 49.2656 50.4375 45.0938 Q46.9688 40.9219 40.5781 39.3125"
                 id="DejaVuSans-33" />
            </defs>
            <g
               transform="translate(9.345 34.1985496333)scale(0.12 -0.12)"
               id="g268">
              <use
                 xlink:href="#DejaVuSans-33"
                 id="use270" />
              <use
                 x="63.623046875"
                 xlink:href="#DejaVuSans-30"
                 id="use272" />
              <use
                 x="127.24609375"
                 xlink:href="#DejaVuSans-30"
                 id="use274" />
            </g>
          </g>
        </g>
      </g>
      <g
         id="patch_3">
        <path
           d=" M34.5381 17.46 L576.167 17.46"
           style="fill:none;stroke:#000000;"
           id="path277" />
      </g>
      <g
         id="patch_4">
        <path
           d=" M576.167 376.34 L576.167 17.46"
           style="fill:none;stroke:#000000;"
           id="path280" />
      </g>
      <g
         id="patch_5">
        <path
           d=" M34.5381 376.34 L576.167 376.34"
           style="fill:none;stroke:#000000;"
           id="path283" />
      </g>
      <g
         id="patch_6">
        <path
           d=" M34.5381 376.34 L34.5381 17.46"
           style="fill:none;stroke:#000000;"
           id="path286" />
      </g>
      <g
         id="legend_1">
        <g
           id="patch_7">
          <path
             d=" M41.7381 50.517 L418.537 50.517 L418.537 24.66 L41.7381 24.66 L41.7381 50.517 z "
             style="fill:#ffffff;stroke:#000000;"
             id="path290" />
        </g>
        <g
           id="line2d_32">
          <path
             d=" M51.8181 36.3217 L71.9781 36.3217"
             style="fill:none;stroke:#ff0000;"
             id="path293" />
        </g>
        <g
           id="line2d_33" />
        <g
           id="text_11">
          <!-- /acumine_radar/scanner/pose/poses[0]/angle -->
          <defs
             id="defs297">
            <path
               d=" M25.3906 72.9062 L33.6875 72.9062 L8.29688 -9.28125 L0 -9.28125 z "
               id="DejaVuSans-2f" />
            <path
               d=" M30.6094 48.3906 Q23.3906 48.3906 19.1875 42.75 Q14.9844 37.1094 14.9844 27.2969 Q14.9844 17.4844 19.1562 11.8438 Q23.3438 6.20312 30.6094 6.20312 Q37.7969 6.20312 41.9844 11.8594 Q46.1875 17.5312 46.1875 27.2969 Q46.1875 37.0156 41.9844 42.7031 Q37.7969 48.3906 30.6094 48.3906 M30.6094 56 Q42.3281 56 49.0156 48.375 Q55.7188 40.7656 55.7188 27.2969 Q55.7188 13.875 49.0156 6.21875 Q42.3281 -1.42188 30.6094 -1.42188 Q18.8438 -1.42188 12.1719 6.21875 Q5.51562 13.875 5.51562 27.2969 Q5.51562 40.7656 12.1719 48.375 Q18.8438 56 30.6094 56"
               id="DejaVuSans-6f" />
            <path
               d=" M8.59375 75.9844 L29.2969 75.9844 L29.2969 69 L17.5781 69 L17.5781 -6.20312 L29.2969 -6.20312 L29.2969 -13.1875 L8.59375 -13.1875 z "
               id="DejaVuSans-5b" />
            <path
               d=" M52 44.1875 Q55.375 50.25 60.0625 53.125 Q64.75 56 71.0938 56 Q79.6406 56 84.2812 50.0156 Q88.9219 44.0469 88.9219 33.0156 L88.9219 0 L79.8906 0 L79.8906 32.7188 Q79.8906 40.5781 77.0938 44.375 Q74.3125 48.1875 68.6094 48.1875 Q61.625 48.1875 57.5625 43.5469 Q53.5156 38.9219 53.5156 30.9062 L53.5156 0 L44.4844 0 L44.4844 32.7188 Q44.4844 40.625 41.7031 44.4062 Q38.9219 48.1875 33.1094 48.1875 Q26.2188 48.1875 22.1562 43.5312 Q18.1094 38.875 18.1094 30.9062 L18.1094 0 L9.07812 0 L9.07812 54.6875 L18.1094 54.6875 L18.1094 46.1875 Q21.1875 51.2188 25.4844 53.6094 Q29.7812 56 35.6875 56 Q41.6562 56 45.8281 52.9688 Q50 49.9531 52 44.1875"
               id="DejaVuSans-6d" />
            <path
               d=" M54.8906 33.0156 L54.8906 0 L45.9062 0 L45.9062 32.7188 Q45.9062 40.4844 42.875 44.3281 Q39.8438 48.1875 33.7969 48.1875 Q26.5156 48.1875 22.3125 43.5469 Q18.1094 38.9219 18.1094 30.9062 L18.1094 0 L9.07812 0 L9.07812 54.6875 L18.1094 54.6875 L18.1094 46.1875 Q21.3438 51.125 25.7031 53.5625 Q30.0781 56 35.7969 56 Q45.2188 56 50.0469 50.1719 Q54.8906 44.3438 54.8906 33.0156"
               id="DejaVuSans-6e" />
            <path
               d=" M50.9844 -16.6094 L50.9844 -23.5781 L-0.984375 -23.5781 L-0.984375 -16.6094 z "
               id="DejaVuSans-5f" />
            <path
               d=" M18.1094 8.20312 L18.1094 -20.7969 L9.07812 -20.7969 L9.07812 54.6875 L18.1094 54.6875 L18.1094 46.3906 Q20.9531 51.2656 25.2656 53.625 Q29.5938 56 35.5938 56 Q45.5625 56 51.7812 48.0938 Q58.0156 40.1875 58.0156 27.2969 Q58.0156 14.4062 51.7812 6.48438 Q45.5625 -1.42188 35.5938 -1.42188 Q29.5938 -1.42188 25.2656 0.953125 Q20.9531 3.32812 18.1094 8.20312 M48.6875 27.2969 Q48.6875 37.2031 44.6094 42.8438 Q40.5312 48.4844 33.4062 48.4844 Q26.2656 48.4844 22.1875 42.8438 Q18.1094 37.2031 18.1094 27.2969 Q18.1094 17.3906 22.1875 11.75 Q26.2656 6.10938 33.4062 6.10938 Q40.5312 6.10938 44.6094 11.75 Q48.6875 17.3906 48.6875 27.2969"
               id="DejaVuSans-70" />
            <path
               d=" M9.42188 75.9844 L18.4062 75.9844 L18.4062 0 L9.42188 0 z "
               id="DejaVuSans-6c" />
            <path
               d=" M30.4219 75.9844 L30.4219 -13.1875 L9.71875 -13.1875 L9.71875 -6.20312 L21.3906 -6.20312 L21.3906 69 L9.71875 69 L9.71875 75.9844 z "
               id="DejaVuSans-5d" />
            <path
               d=" M9.42188 54.6875 L18.4062 54.6875 L18.4062 0 L9.42188 0 z  M9.42188 75.9844 L18.4062 75.9844 L18.4062 64.5938 L9.42188 64.5938 z "
               id="DejaVuSans-69" />
            <path
               d=" M8.5 21.5781 L8.5 54.6875 L17.4844 54.6875 L17.4844 21.9219 Q17.4844 14.1562 20.5 10.2656 Q23.5312 6.39062 29.5938 6.39062 Q36.8594 6.39062 41.0781 11.0312 Q45.3125 15.6719 45.3125 23.6875 L45.3125 54.6875 L54.2969 54.6875 L54.2969 0 L45.3125 0 L45.3125 8.40625 Q42.0469 3.42188 37.7188 1 Q33.4062 -1.42188 27.6875 -1.42188 Q18.2656 -1.42188 13.375 4.4375 Q8.5 10.2969 8.5 21.5781 M31.1094 56 z "
               id="DejaVuSans-75" />
            <path
               d=" M45.4062 27.9844 Q45.4062 37.75 41.375 43.1094 Q37.3594 48.4844 30.0781 48.4844 Q22.8594 48.4844 18.8281 43.1094 Q14.7969 37.75 14.7969 27.9844 Q14.7969 18.2656 18.8281 12.8906 Q22.8594 7.51562 30.0781 7.51562 Q37.3594 7.51562 41.375 12.8906 Q45.4062 18.2656 45.4062 27.9844 M54.3906 6.78125 Q54.3906 -7.17188 48.1875 -13.9844 Q42 -20.7969 29.2031 -20.7969 Q24.4688 -20.7969 20.2656 -20.0938 Q16.0625 -19.3906 12.1094 -17.9219 L12.1094 -9.1875 Q16.0625 -11.3281 19.9219 -12.3438 Q23.7812 -13.375 27.7812 -13.375 Q36.625 -13.375 41.0156 -8.76562 Q45.4062 -4.15625 45.4062 5.17188 L45.4062 9.625 Q42.625 4.78125 38.2812 2.39062 Q33.9375 0 27.875 0 Q17.8281 0 11.6719 7.65625 Q5.51562 15.3281 5.51562 27.9844 Q5.51562 40.6719 11.6719 48.3281 Q17.8281 56 27.875 56 Q33.9375 56 38.2812 53.6094 Q42.625 51.2188 45.4062 46.3906 L45.4062 54.6875 L54.3906 54.6875 z "
               id="DejaVuSans-67" />
            <path
               d=" M45.4062 46.3906 L45.4062 75.9844 L54.3906 75.9844 L54.3906 0 L45.4062 0 L45.4062 8.20312 Q42.5781 3.32812 38.25 0.953125 Q33.9375 -1.42188 27.875 -1.42188 Q17.9688 -1.42188 11.7344 6.48438 Q5.51562 14.4062 5.51562 27.2969 Q5.51562 40.1875 11.7344 48.0938 Q17.9688 56 27.875 56 Q33.9375 56 38.25 53.625 Q42.5781 51.2656 45.4062 46.3906 M14.7969 27.2969 Q14.7969 17.3906 18.875 11.75 Q22.9531 6.10938 30.0781 6.10938 Q37.2031 6.10938 41.2969 11.75 Q45.4062 17.3906 45.4062 27.2969 Q45.4062 37.2031 41.2969 42.8438 Q37.2031 48.4844 30.0781 48.4844 Q22.9531 48.4844 18.875 42.8438 Q14.7969 37.2031 14.7969 27.2969"
               id="DejaVuSans-64" />
            <path
               d=" M56.2031 29.5938 L56.2031 25.2031 L14.8906 25.2031 Q15.4844 15.9219 20.4844 11.0625 Q25.4844 6.20312 34.4219 6.20312 Q39.5938 6.20312 44.4531 7.46875 Q49.3125 8.73438 54.1094 11.2812 L54.1094 2.78125 Q49.2656 0.734375 44.1875 -0.34375 Q39.1094 -1.42188 33.8906 -1.42188 Q20.7969 -1.42188 13.1562 6.1875 Q5.51562 13.8125 5.51562 26.8125 Q5.51562 40.2344 12.7656 48.1094 Q20.0156 56 32.3281 56 Q43.3594 56 49.7812 48.8906 Q56.2031 41.7969 56.2031 29.5938 M47.2188 32.2344 Q47.125 39.5938 43.0938 43.9844 Q39.0625 48.3906 32.4219 48.3906 Q24.9062 48.3906 20.3906 44.1406 Q15.875 39.8906 15.1875 32.1719 z "
               id="DejaVuSans-65" />
            <path
               d=" M41.1094 46.2969 Q39.5938 47.1719 37.8125 47.5781 Q36.0312 48 33.8906 48 Q26.2656 48 22.1875 43.0469 Q18.1094 38.0938 18.1094 28.8125 L18.1094 0 L9.07812 0 L9.07812 54.6875 L18.1094 54.6875 L18.1094 46.1875 Q20.9531 51.1719 25.4844 53.5781 Q30.0312 56 36.5312 56 Q37.4531 56 38.5781 55.875 Q39.7031 55.7656 41.0625 55.5156 z "
               id="DejaVuSans-72" />
            <path
               d=" M48.7812 52.5938 L48.7812 44.1875 Q44.9688 46.2969 41.1406 47.3438 Q37.3125 48.3906 33.4062 48.3906 Q24.6562 48.3906 19.8125 42.8438 Q14.9844 37.3125 14.9844 27.2969 Q14.9844 17.2812 19.8125 11.7344 Q24.6562 6.20312 33.4062 6.20312 Q37.3125 6.20312 41.1406 7.25 Q44.9688 8.29688 48.7812 10.4062 L48.7812 2.09375 Q45.0156 0.34375 40.9844 -0.53125 Q36.9688 -1.42188 32.4219 -1.42188 Q20.0625 -1.42188 12.7812 6.34375 Q5.51562 14.1094 5.51562 27.2969 Q5.51562 40.6719 12.8594 48.3281 Q20.2188 56 33.0156 56 Q37.1562 56 41.1094 55.1406 Q45.0625 54.2969 48.7812 52.5938"
               id="DejaVuSans-63" />
            <path
               d=" M44.2812 53.0781 L44.2812 44.5781 Q40.4844 46.5312 36.375 47.5 Q32.2812 48.4844 27.875 48.4844 Q21.1875 48.4844 17.8438 46.4375 Q14.5 44.3906 14.5 40.2812 Q14.5 37.1562 16.8906 35.375 Q19.2812 33.5938 26.5156 31.9844 L29.5938 31.2969 Q39.1562 29.25 43.1875 25.5156 Q47.2188 21.7812 47.2188 15.0938 Q47.2188 7.46875 41.1875 3.01562 Q35.1562 -1.42188 24.6094 -1.42188 Q20.2188 -1.42188 15.4531 -0.5625 Q10.6875 0.296875 5.42188 2 L5.42188 11.2812 Q10.4062 8.6875 15.2344 7.39062 Q20.0625 6.10938 24.8125 6.10938 Q31.1562 6.10938 34.5625 8.28125 Q37.9844 10.4531 37.9844 14.4062 Q37.9844 18.0625 35.5156 20.0156 Q33.0625 21.9688 24.7031 23.7812 L21.5781 24.5156 Q13.2344 26.2656 9.51562 29.9062 Q5.8125 33.5469 5.8125 39.8906 Q5.8125 47.6094 11.2812 51.7969 Q16.75 56 26.8125 56 Q31.7812 56 36.1719 55.2656 Q40.5781 54.5469 44.2812 53.0781"
               id="DejaVuSans-73" />
            <path
               d=" M34.2812 27.4844 Q23.3906 27.4844 19.1875 25 Q14.9844 22.5156 14.9844 16.5 Q14.9844 11.7188 18.1406 8.90625 Q21.2969 6.10938 26.7031 6.10938 Q34.1875 6.10938 38.7031 11.4062 Q43.2188 16.7031 43.2188 25.4844 L43.2188 27.4844 z  M52.2031 31.2031 L52.2031 0 L43.2188 0 L43.2188 8.29688 Q40.1406 3.32812 35.5469 0.953125 Q30.9531 -1.42188 24.3125 -1.42188 Q15.9219 -1.42188 10.9531 3.29688 Q6 8.01562 6 15.9219 Q6 25.1406 12.1719 29.8281 Q18.3594 34.5156 30.6094 34.5156 L43.2188 34.5156 L43.2188 35.4062 Q43.2188 41.6094 39.1406 45 Q35.0625 48.3906 27.6875 48.3906 Q23 48.3906 18.5469 47.2656 Q14.1094 46.1406 10.0156 43.8906 L10.0156 52.2031 Q14.9375 54.1094 19.5781 55.0469 Q24.2188 56 28.6094 56 Q40.4844 56 46.3438 49.8438 Q52.2031 43.7031 52.2031 31.2031"
               id="DejaVuSans-61" />
          </defs>
          <g
             transform="translate(87.818125 41.36175)scale(0.144 -0.144)"
             id="g317">
            <use
               xlink:href="#DejaVuSans-2f"
               id="use319" />
            <use
               x="33.69140625"
               xlink:href="#DejaVuSans-61"
               id="use321" />
            <use
               x="94.970703125"
               xlink:href="#DejaVuSans-63"
               id="use323" />
            <use
               x="149.951171875"
               xlink:href="#DejaVuSans-75"
               id="use325" />
            <use
               x="213.330078125"
               xlink:href="#DejaVuSans-6d"
               id="use327" />
            <use
               x="310.7421875"
               xlink:href="#DejaVuSans-69"
               id="use329" />
            <use
               x="338.525390625"
               xlink:href="#DejaVuSans-6e"
               id="use331" />
            <use
               x="401.904296875"
               xlink:href="#DejaVuSans-65"
               id="use333" />
            <use
               x="463.427734375"
               xlink:href="#DejaVuSans-5f"
               id="use335" />
            <use
               x="513.427734375"
               xlink:href="#DejaVuSans-72"
               id="use337" />
            <use
               x="554.541015625"
               xlink:href="#DejaVuSans-61"
               id="use339" />
            <use
               x="615.8203125"
               xlink:href="#DejaVuSans-64"
               id="use341" />
            <use
               x="679.296875"
               xlink:href="#DejaVuSans-61"
               id="use343" />
            <use
               x="740.576171875"
               xlink:href="#DejaVuSans-72"
               id="use345" />
            <use
               x="781.689453125"
               xlink:href="#DejaVuSans-2f"
               id="use347" />
            <use
               x="815.380859375"
               xlink:href="#DejaVuSans-73"
               id="use349" />
            <use
               x="867.48046875"
               xlink:href="#DejaVuSans-63"
               id="use351" />
            <use
               x="922.4609375"
               xlink:href="#DejaVuSans-61"
               id="use353" />
            <use
               x="983.740234375"
               xlink:href="#DejaVuSans-6e"
               id="use355" />
            <use
               x="1047.11914062"
               xlink:href="#DejaVuSans-6e"
               id="use357" />
            <use
               x="1110.49804688"
               xlink:href="#DejaVuSans-65"
               id="use359" />
            <use
               x="1172.02148438"
               xlink:href="#DejaVuSans-72"
               id="use361" />
            <use
               x="1213.13476562"
               xlink:href="#DejaVuSans-2f"
               id="use363" />
            <use
               x="1246.82617188"
               xlink:href="#DejaVuSans-70"
               id="use365" />
            <use
               x="1310.30273438"
               xlink:href="#DejaVuSans-6f"
               id="use367" />
            <use
               x="1371.484375"
               xlink:href="#DejaVuSans-73"
               id="use369" />
            <use
               x="1423.58398438"
               xlink:href="#DejaVuSans-65"
               id="use371" />
            <use
               x="1485.10742188"
               xlink:href="#DejaVuSans-2f"
               id="use373" />
            <use
               x="1518.79882812"
               xlink:href="#DejaVuSans-70"
               id="use375" />
            <use
               x="1582.27539062"
               xlink:href="#DejaVuSans-6f"
               id="use377" />
            <use
               x="1643.45703125"
               xlink:href="#DejaVuSans-73"
               id="use379" />
            <use
               x="1695.55664062"
               xlink:href="#DejaVuSans-65"
               id="use381" />
            <use
               x="1757.08007812"
               xlink:href="#DejaVuSans-73"
               id="use383" />
            <use
               x="1809.1796875"
               xlink:href="#DejaVuSans-5b"
               id="use385" />
            <use
               x="1848.19335938"
               xlink:href="#DejaVuSans-30"
               id="use387" />
            <use
               x="1911.81640625"
               xlink:href="#DejaVuSans-5d"
               id="use389" />
            <use
               x="1950.83007812"
               xlink:href="#DejaVuSans-2f"
               id="use391" />
            <use
               x="1984.52148438"
               xlink:href="#DejaVuSans-61"
               id="use393" />
            <use
               x="2045.80078125"
               xlink:href="#DejaVuSans-6e"
               id="use395" />
            <use
               x="2109.1796875"
               xlink:href="#DejaVuSans-67"
               id="use397" />
            <use
               x="2172.65625"
               xlink:href="#DejaVuSans-6c"
               id="use399" />
            <use
               x="2200.43945312"
               xlink:href="#DejaVuSans-65"
               id="use401" />
          </g>
        </g>
      </g>
    </g>
  </g>
  <defs
     id="defs403">
    <clipPath
       id="pa3adb72257">
      <rect
         height="358.88"
         width="541.62921875"
         x="34.538125"
         y="17.46"
         id="rect406" />
    </clipPath>
  </defs>
  <text
     xml:space="preserve"
     style="font-size:32px;font-style:normal;font-weight:normal;line-height:125%;letter-spacing:0px;word-spacing:0px;fill:#000000;fill-opacity:1;stroke:none;font-family:Sans"
     x="256.04688"
     y="398.67188"
     id="text3797"
     sodipodi:linespacing="125%"><tspan
       sodipodi:role="line"
       id="tspan3799"
       x="256.04688"
       y="398.67188"
       style="font-size:16px">Tiempo [s]</tspan></text>
  <text
     xml:space="preserve"
     style="font-size:32px;font-style:normal;font-weight:normal;line-height:125%;letter-spacing:0px;word-spacing:0px;fill:#000000;fill-opacity:1;stroke:none;font-family:Sans"
     x="-242.125"
     y="12.15625"
     id="text3797-9"
     sodipodi:linespacing="125%"
     transform="matrix(0,-1,1,0,0,0)"><tspan
       sodipodi:role="line"
       id="tspan3799-1"
       x="-242.125"
       y="12.15625"
       style="font-size:16px">Angulo [º]</tspan></text>
</svg>
